<?xml version="1.0" encoding="utf-8"?>
<!-- Generator: Adobe Illustrator 24.3.0, SVG Export Plug-In . SVG Version: 6.00 Build 0)  -->
<svg version="1.1" id="Layer_1" xmlns="http://www.w3.org/2000/svg" xmlns:xlink="http://www.w3.org/1999/xlink" x="0px" y="0px"
	 viewBox="0 0 850.4 850.4" style="enable-background:new 0 0 850.4 850.4;" xml:space="preserve">
<style type="text/css">
	.st0{fill:#1D1D1B;}
</style>
<path class="st0" d="M501.1,193.3c0-36.9-34-67.1-75.8-67.1s-75.8,30.2-75.8,67.1v68.9h33.8v-68.9c0-18.4,18.9-33.3,42.1-33.3
	s42.1,14.8,42.1,33.3V279l0,0c0,0.7-4,17.3-11.5,23.4c-8.5,6.8-20,10.6-32.6,10.6l0,0c-18.9,0.7-36.4,7.2-49.9,18
	c-13.5,11-21.8,25.2-23.6,40.9h-0.5v174.2l151.9,0.2v-34H383c0,0,0-132.5,0-133.2c0-7.9,4.1-15.5,11.5-21.6
	c8.5-6.8,20-10.6,32.6-10.6l0,0c18.7-0.7,36.4-7.2,49.9-18c15.5-12.6,24.1-29.5,24.1-47.7C501.1,280.8,501.1,193.3,501.1,193.3z"/>
</svg>
