<?xml version="1.0" encoding="utf-8"?>
<!-- Generator: Adobe Illustrator 24.3.0, SVG Export Plug-In . SVG Version: 6.00 Build 0)  -->
<svg version="1.1" id="Layer_1" xmlns="http://www.w3.org/2000/svg" xmlns:xlink="http://www.w3.org/1999/xlink" x="0px" y="0px"
	 viewBox="0 0 850.4 850.4" style="enable-background:new 0 0 850.4 850.4;" xml:space="preserve">
<style type="text/css">
	.st0{fill:#1D1D1B;}
</style>
<path class="st0" d="M349.3,501.2h0.2c2.5,35.1,35.6,63,75.8,63c41.9,0,75.8-30.1,75.8-67.1l-0.2-157.9
	c-4.7-33.1-37.1-58.7-75.8-58.7c-15.5,0-30.1,4.3-42.1,11.3v-82.8c0.2-18.4,19.1-33.3,42.3-33.3c23.2,0,42.1,14.8,42.1,33.3h33.8
	c0-36.9-34-67.1-75.8-67.1c-39.4,0-71.8,26.6-75.6,60.3h-0.4L349.3,501.2L349.3,501.2z M425.3,314.2c23.2,0,42.1,14.9,42.1,33.3
	v149.6c0,18.4-18.9,33.3-42.1,33.3c-23.2,0-42.1-14.9-42.1-33.3V347.5C383.2,329,402.1,314.2,425.3,314.2z"/>
</svg>
