<?xml version="1.0" encoding="utf-8"?>
<!-- Generator: Adobe Illustrator 24.3.0, SVG Export Plug-In . SVG Version: 6.00 Build 0)  -->
<svg version="1.1" id="Layer_1" xmlns="http://www.w3.org/2000/svg" xmlns:xlink="http://www.w3.org/1999/xlink" x="0px" y="0px"
	 viewBox="0 0 850.4 850.4" style="enable-background:new 0 0 850.4 850.4;" xml:space="preserve">
<style type="text/css">
	.st0{fill:#1D1D1B;}
</style>
<path class="st0" d="M478.2,304.8c0-36.2-29.5-65.5-65.5-65.5V273c17.5,0,31.7,14.2,31.7,31.7c-1.6,0-3.1,0-4.1,0
	c-32.9,1.8-68.2,28.4-68.2,65.5v113.6c0,37.1,35.3,63.7,68.2,65.5c1.6,0,37.8,0,37.8,0V304.8z M406.2,484.1V370.5
	c0-16.9,19.4-30.8,36-31.7c0.4,0,1.4,0,2.5,0v177.5c-0.9,0-1.8,0-2.2,0C425.5,514.9,406.2,501,406.2,484.1z"/>
</svg>
