<?xml version="1.0" encoding="utf-8"?>
<!-- Generator: Adobe Illustrator 24.3.0, SVG Export Plug-In . SVG Version: 6.00 Build 0)  -->
<svg version="1.1" id="Layer_1" xmlns="http://www.w3.org/2000/svg" xmlns:xlink="http://www.w3.org/1999/xlink" x="0px" y="0px"
	 viewBox="0 0 850.4 850.4" style="enable-background:new 0 0 850.4 850.4;" xml:space="preserve">
<path d="M425.2,292.9c-29.2,0-57.6,21.8-57.6,50.4v157.1c0,31.7,25.9,57.6,57.6,57.6s57.6-25.9,57.6-57.6c0,0,0-154.6,0-157.1
	C482.8,314.9,454.7,292.9,425.2,292.9z M449.3,500.3c0,13.3-10.8,23.9-23.9,23.9c-13.1,0-23.9-10.8-23.9-23.9V350.5
	c0-13.3,10.8-23.9,23.9-23.9c13,0,23.9,10.8,23.9,23.9V500.3z"/>
</svg>
