<?xml version="1.0" encoding="utf-8"?>
<!-- Generator: Adobe Illustrator 24.3.0, SVG Export Plug-In . SVG Version: 6.00 Build 0)  -->
<svg version="1.1" id="Layer_1" xmlns="http://www.w3.org/2000/svg" xmlns:xlink="http://www.w3.org/1999/xlink" x="0px" y="0px"
	 viewBox="0 0 850.4 850.4" style="enable-background:new 0 0 850.4 850.4;" xml:space="preserve">
<style type="text/css">
	.st0{fill:#1D1D1B;}
</style>
<path class="st0" d="M447.9,168.2c-19.8,0-37.6,8.8-49.7,22.7c-12.6-13.9-31.1-22.7-51.3-22.7c-3.1,0-6.5,0.2-9.7,0.7l4.7,33.5
	c1.6-0.2,3.4-0.4,4.9-0.4c19.6,0,35.3,16,35.3,35.3v17.3V346v27.9H416V346v-91.1v-17.3v-3.6c0-17.6,14.2-31.7,31.7-31.7
	s31.7,14.2,31.7,31.7v228.8v20.7c0,24.8-20.2,45-45,45s-45-20.2-45-45v-20.7h-33.8v20.7c0,43.4,35.3,78.7,78.8,78.7
	s78.8-35.3,78.8-78.7v-20.7v-229C513.6,197.7,484.1,168.2,447.9,168.2z"/>
</svg>
