<?xml version="1.0" encoding="utf-8"?>
<!-- Generator: Adobe Illustrator 24.3.0, SVG Export Plug-In . SVG Version: 6.00 Build 0)  -->
<svg version="1.1" id="Layer_1" xmlns="http://www.w3.org/2000/svg" xmlns:xlink="http://www.w3.org/1999/xlink" x="0px" y="0px"
	 viewBox="0 0 850.4 850.4" style="enable-background:new 0 0 850.4 850.4;" xml:space="preserve">
<style type="text/css">
	.st0{fill:#1D1D1B;}
</style>
<path class="st0" d="M554.9,492V178.6h-33.8v312.9c0,17-14.2,30.8-31.7,30.8c-23.6,0-31.3-22.3-31.1-30.3V260.5
	c0-50.2-42.1-91-93.8-91c-12.8,0-25,2.4-36,7c-11-4.6-23.2-7-36-7c-50.4,0-91.6,38.6-93.6,87.1l0,0v290h33.8v-286
	c0-32.1,27-58.3,60.1-58.3c0,0,0,0,0.2,0c-11.9,13.8-19.6,31.2-21.4,50.2l-0.4,244.1c0,32.3,25.9,58.5,57.6,58.5
	s57.6-26.2,57.6-58.5v-236c0-22.1-8.1-42.4-21.8-58.3c0,0,0,0,0.2,0c33.1,0,60.1,26.2,60.1,58.3v230.8c0,0-3.8,62.7,63.2,62.7
	c24.3,0,38-7.2,49.9-19.9c0.7,0.9,9.2,9.2,13,10.7C544.3,557,545,571,545,571c0,24.7,20.7,44.8,46.1,44.8c4.3,0,8.3-0.7,12.4-1.7
	v7.2c0,6.3-5.6,11.6-12.4,11.6s-12.4-5.2-12.4-11.6H545c0,24.5,20.7,44.3,46.1,44.3c25.4,0,46.1-19.9,46.1-44.3v-60.5
	c0,0,0.2-12.2-9.2-20.7c14-11.1,23.4-28.8,23.4-48.5V178.6h-33.8v312.9c0,17-14.2,31.2-31.7,30.8C554,521.4,554.9,492,554.9,492z
	 M352.2,260.7v236c0,14.2-10.8,25.8-23.9,25.8c-13,0-23.9-11.6-23.9-25.8v-236c0-19,9.5-35.8,23.9-46.5
	C342.7,224.7,352.2,241.7,352.2,260.7z M590.7,583.2c-6.8,0-12.4-5.5-12.4-12v-4.1c0-6.6,5.6-12,12.4-12s12.4,5.5,12.4,12v4.1
	C603.1,578,597.4,583.2,590.7,583.2z"/>
</svg>
