<?xml version="1.0" encoding="utf-8"?>
<!-- Generator: Adobe Illustrator 24.3.0, SVG Export Plug-In . SVG Version: 6.00 Build 0)  -->
<svg version="1.1" id="Layer_1" xmlns="http://www.w3.org/2000/svg" xmlns:xlink="http://www.w3.org/1999/xlink" x="0px" y="0px"
	 viewBox="0 0 850.4 850.4" style="enable-background:new 0 0 850.4 850.4;" xml:space="preserve">
<style type="text/css">
	.st0{fill:#1D1D1B;}
</style>
<path class="st0" d="M554.9,491V178.5h-33.8v312.1c0,17-14.2,30.7-31.7,30.7c-23.6,0-31.3-22.2-31.1-30.3V260.1
	c0-50.1-42.1-90.8-93.8-90.8c-12.8,0-25,2.4-36,7c-11-4.6-23.2-7-36-7c-50.4,0-91.6,38.5-93.6,86.9l0,0v289.2h33.8V260.1
	c0-32,27-58.2,60.1-58.2c0,0,0,0,0.2,0c-11.9,13.7-19.6,31.1-21.4,50.1l-0.4,243.5c0,32.2,25.9,58.4,57.6,58.4s57.6-26.1,57.6-58.4
	V260.1c0-22-8.1-42.3-21.8-58.2c0,0,0,0,0.2,0c33.1,0,60.1,26.1,60.1,58.2v230.2c0,0-3.8,62.5,63.2,62.5c24.3,0,38-7.2,49.9-19.8
	c0.7,0.9,9.2,9.1,13,10.7c-6.8,12.2-6.1,26.1-6.1,26.1c0,24.6,20.7,44.6,46.1,44.6c4.3,0,8.3-0.7,12.4-1.7v7.2
	c0,6.3-5.6,11.5-12.4,11.5s-12.4-5.2-12.4-11.5H545c0,24.4,20.7,44.2,46.1,44.2c25.4,0,46.1-19.8,46.1-44.2v-60.3
	c0,0,0.2-12.2-9.2-20.7c14-11.1,23.4-28.7,23.4-48.3V178.5h-33.8v312.1c0,17-14.2,31.1-31.7,30.7C554,520.4,554.9,491,554.9,491z
	 M352.2,260.3v235.4c0,14.2-10.8,25.7-23.9,25.7c-13,0-23.9-11.5-23.9-25.7V260.3c0-18.9,9.5-35.7,23.9-46.4
	C342.7,224.4,352.2,241.4,352.2,260.3z M590.7,582c-6.8,0-12.4-5.4-12.4-12v-4.1c0-6.5,5.6-12,12.4-12s12.4,5.4,12.4,12v4.1
	C603.1,576.8,597.4,582,590.7,582z"/>
</svg>
