<?xml version="1.0" encoding="utf-8"?>
<!-- Generator: Adobe Illustrator 24.3.0, SVG Export Plug-In . SVG Version: 6.00 Build 0)  -->
<svg version="1.1" id="Layer_1" xmlns="http://www.w3.org/2000/svg" xmlns:xlink="http://www.w3.org/1999/xlink" x="0px" y="0px"
	 viewBox="0 0 850.4 850.4" style="enable-background:new 0 0 850.4 850.4;" xml:space="preserve">
<style type="text/css">
	.st0{fill:#1D1D1B;}
</style>
<path class="st0" d="M478.2,126.5h-33.8v110.7c-1.6,0-3.1,0-4.1,0c-32.9,1.8-68.2,28.4-68.2,65.5V482c0,37.1,35.3,63.7,68.2,65.5
	c1.6,0,7.4,0,7.4,0v-0.2h30.4V126.5z M406.2,482V302.9c0-16.9,19.4-30.8,36-31.7c0.4,0,1.4,0,2.5,0v242.8c-0.9,0-1.8,0-2.2,0
	C425.5,512.8,406.2,498.6,406.2,482z"/>
</svg>
