<?xml version="1.0" encoding="utf-8"?>
<!-- Generator: Adobe Illustrator 24.3.0, SVG Export Plug-In . SVG Version: 6.00 Build 0)  -->
<svg version="1.1" id="Layer_1" xmlns="http://www.w3.org/2000/svg" xmlns:xlink="http://www.w3.org/1999/xlink" x="0px" y="0px"
	 viewBox="0 0 850.4 850.4" style="enable-background:new 0 0 850.4 850.4;" xml:space="preserve">
<style type="text/css">
	.st0{fill:#1D1D1B;}
</style>
<path class="st0" d="M549.8,165.3c-41.9,0-76,34.2-76,76v217.1h-59v-73.1l0,0c0-32.4-26.5-58.9-58.9-58.9s-58.9,26.5-58.9,58.9
	v106.9h33.8V385.4c0-13.9,11.2-25.2,25.2-25.2s25.2,11.2,25.2,25.2l0,0v106.9h126.5V241.4c0-23.4,18.9-42.3,42.3-42.3
	c23.4,0,42.3,18.9,42.3,42.3v0.2v259c0,30.1-24.5,54.7-54.7,54.7H312.9c-30.1,0-54.7-24.5-54.7-54.7V169.8h-33.8v330.5
	c0,93.4,82.1,88.4,82.1,88.4h223c-0.2,2-0.5,4-0.5,6.3v2.9c0,25.4,20.7,46.1,46.1,46.1c4.3,0,8.3-0.7,12.4-1.8v9.5
	c0,7.9-5.6,14.4-12.4,14.4s-12.4-6.5-12.4-14.4h-33.8c0,26.5,20.7,48.2,46.1,48.2s46.1-21.6,46.1-48.2v-61.6h-0.4
	c-1.4-12.6-7.9-23.9-17.3-31.3c13.7-15.5,22.3-36,22.3-58.5v-259v-0.2C625.9,199.3,591.7,165.3,549.8,165.3z M575.3,610.2
	c-6.8,0-12.4-5.6-12.4-12.4v-2.9c0-6.8,5.6-12.4,12.4-12.4s12.4,5.6,12.4,12.4v2.9C587.4,604.8,582,610.2,575.3,610.2z"/>
</svg>
