<?xml version="1.0" encoding="utf-8"?>
<!-- Generator: Adobe Illustrator 24.3.0, SVG Export Plug-In . SVG Version: 6.00 Build 0)  -->
<svg version="1.1" id="Layer_1" xmlns="http://www.w3.org/2000/svg" xmlns:xlink="http://www.w3.org/1999/xlink" x="0px" y="0px"
	 viewBox="0 0 850.4 850.4" style="enable-background:new 0 0 850.4 850.4;" xml:space="preserve">
<style type="text/css">
	.st0{fill:#1D1D1B;}
</style>
<path class="st0" d="M554.3,168.2c-41.8,0-76,33.1-76,73.7v14.4v4.6v254.2h-58.9V395v-13.5c0-31.4-26.6-57.1-59-57.1
	s-58.9,25.7-58.9,57.1v10v3.5v152.8h33.8V395v-3.5v-10c0-13.5,11.2-24.4,25.2-24.4c14,0,25.2,10.9,25.2,24.4V395v152.8h33.8l0,0
	h68.2l0,0H512V261.1v-4.6v-14.6c0-22.7,18.9-41,42.3-41c23.4,0,42.3,18.3,42.3,41v18.3v0.7v220v66.9v28.6c0,29.2-24.5,53-54.7,53
	H308.4c-30.1,0-54.7-23.8-54.7-53v-11.8v-11.3V178.4H220v375.3v11.3v11.8c0,46,37.6,83.5,84.6,85.5l0,0h244.4v-0.2
	c45.5-3.5,81.5-40.3,81.5-85.3v-28.6v-66.9V261.1v-0.7v-18.5C630.4,201.4,596.4,168.2,554.3,168.2z"/>
</svg>
