<?xml version="1.0" encoding="utf-8"?>
<!-- Generator: Adobe Illustrator 24.3.0, SVG Export Plug-In . SVG Version: 6.00 Build 0)  -->
<svg version="1.1" id="Layer_1" xmlns="http://www.w3.org/2000/svg" xmlns:xlink="http://www.w3.org/1999/xlink" x="0px" y="0px"
	 viewBox="0 0 850.4 850.4" style="enable-background:new 0 0 850.4 850.4;" xml:space="preserve">
<style type="text/css">
	.st0{fill:#1D1D1B;}
</style>
<g>
	<path class="st0" d="M519.9,631.6c0,8.8-7.2,16-16,16c-8.8,0-16-7.2-16-16v-44.3c0-39.1-31.7-70.9-70.9-70.9s-70.9,31.7-70.9,70.9
		l0.5,47.9c0,25.4,20.9,46.1,46.4,46.1c25.4,0,46.1-20.7,46.1-46.1v-12.2c0-25.4-20.7-46.1-46.1-46.1c-4.1,0-8.1,0.7-11.9,1.6
		c3.8-16.4,18.7-28.6,36.2-28.6c20.5,0,37.1,16.7,37.1,37.1v44.3c0,14.6,6.3,27.7,16.2,36.7c-4.3,6.5-6.8,14.2-6.8,22.3v6.8
		c0,22.5,18.2,41,40.9,41c2.5,0,4.7-0.2,7.2-0.7v4.7c0,5.2-3.4,9.9-7.2,9.9c-3.8,0-7.2-4.5-7.2-9.9h-33.8
		c0,24.1,18.2,43.6,40.9,43.6c22.5,0,41-19.6,41-43.6v-54c0,0,0.7-12.8-7.4-20.9c9.5-9,15.3-21.8,15.3-35.8V518.7h-33.8V631.6
		L519.9,631.6z M393,610.7c6.8,0,12.4,5.6,12.4,12.4v12.2c0,6.8-5.6,12.4-12.4,12.4s-12.4-5.6-12.4-12.4v-12.2
		C380.6,616.3,386,610.7,393,610.7z M504.8,704.8c-3.8,0-7.2-3.1-7.2-7.2v-6.8c0-3.8,3.1-7.2,7.2-7.2s7.2,3.1,7.2,7.2v6.8
		C511.8,701.4,508.7,704.8,504.8,704.8z"/>
	<path class="st0" d="M499.4,274.1h-22.5v-54.7c0-29.5-24.1-53.5-53.5-53.5s-53.6,24.1-53.6,53.5v54.7h-23.2
		c-27.5,0-47.9,21.4-50,51.8l0,0v132.3c0,29.5,24.1,53.6,53.6,53.6c14.2,0,27-5.6,36.7-14.6c9.7,9,22.5,14.6,36.7,14.6
		c29.5,0,53.6-24.1,53.6-53.6V307.9h22.5c14.8,0,20.2,11.9,20.2,23.2v176.9h33.8V331C553.2,298.2,530.7,274.1,499.4,274.1z
		 M403.8,219.4c0-11,9-19.8,19.8-19.8s19.8,9,19.8,19.8v54.7h-39.6V219.4z M350.3,477.7c-11,0-19.8-9-19.8-19.8V330.8
		c0-3.8,0.9-23.2,16.4-23.2h23.2v150.1C370.1,469,361.1,477.7,350.3,477.7z M443.4,457.9c0,11-9,19.8-19.8,19.8
		c-11,0-19.8-9-19.8-19.8V307.9h39.6V457.9z"/>
</g>
</svg>
