<?xml version="1.0" encoding="utf-8"?>
<!-- Generator: Adobe Illustrator 24.3.0, SVG Export Plug-In . SVG Version: 6.00 Build 0)  -->
<svg version="1.1" id="Layer_1" xmlns="http://www.w3.org/2000/svg" xmlns:xlink="http://www.w3.org/1999/xlink" x="0px" y="0px"
	 viewBox="0 0 850.4 850.4" style="enable-background:new 0 0 850.4 850.4;" xml:space="preserve">
<style type="text/css">
	.st0{fill:#1D1D1B;}
</style>
<path class="st0" d="M698.9,276.6c0-58.3-48.8-105.9-109.1-105.9c-13.7,0-27,2.6-39.1,7c-11.9-4.6-24.8-7-38.2-7
	c-58.1,0-105.3,46.1-105.3,102.6v23.8c-7.6-3.5-16.2-5.2-25.6-5.2h-28.1v-63.5c0-31.4-26.6-57.2-58.9-57.2s-58.9,25.8-58.9,57.2
	v63.3h-29c-30.2,0-52.4,22.9-54.9,55h-0.2v146.9c0,31.4,26.6,57.2,59,57.2c16.4,0,31.3-6.5,42.1-17.2c10.8,10.7,25.6,17.2,42.1,17.2
	c32.4,0,58.9-25.8,58.9-57.2V324.4h28.1c18.9,0,25.6,14.6,25.6,28.2v195.1h33.8V273.3c0-38.2,31.3-69.2,70.2-69.8
	c-18.7,19-30.1,44.7-30.1,72.9l0.2,212.8c2,34.9,32,62.6,68.2,62.6c36.5,0,66.2-27.7,68.2-62.6l0.2-216.1
	c0-27.1-10.8-51.5-28.4-69.8c0.2,0,0.5,0,0.5,0c41.4,0,75.4,32.7,75.4,73.1l-0.5,252.5c0,60.5-50.9,109.8-113.2,109.8h-52
	c2.7-6.3,4.3-13.1,4.3-20.3c0-29.2-25.2-53-56-53h-80.6c-30.8,0-56,23.8-56,53c0,28.6,24.1,51.9,54.2,52.8l0,0h191.9V671
	c76.5-2.8,138.1-62.6,141.1-136.8h0.2l0.5-257.5C699.1,276.6,698.9,276.6,698.9,276.6z M269.4,228.6c0-13.5,11.2-24.4,25.2-24.4
	c13.9,0,25.2,10.9,25.2,24.4v63.5h-50.4V228.6z M210.4,518c-13.9,0-25.2-10.9-25.2-24.4V352.3c0-12.9,5.6-28.2,21.4-28.2h29v169.4
	C235.6,507.1,224.2,518,210.4,518z M319.8,493.5c0,13.5-11.2,24.4-25.2,24.4c-14,0-25.2-10.9-25.2-24.4V324.2h50.4V493.5z
	 M583.7,273.3v212.4c0,18.6-15.5,33.6-34.6,33.6s-34.7-15.1-34.7-33.6V276.4c0-26.2,14.4-49.3,36-62.2
	C570.4,226.6,583.7,248.4,583.7,273.3z M367,638.7c-12.4,0-22.3-9.2-22.3-20.3c0-11.1,9.9-20.3,22.3-20.3h80.6
	c12.4,0,22.3,9.2,22.3,20.3c0,11.1-9.9,20.3-22.3,20.3H367z"/>
</svg>
