<?xml version="1.0" encoding="utf-8"?>
<!-- Generator: Adobe Illustrator 24.3.0, SVG Export Plug-In . SVG Version: 6.00 Build 0)  -->
<svg version="1.1" id="Layer_1" xmlns="http://www.w3.org/2000/svg" xmlns:xlink="http://www.w3.org/1999/xlink" x="0px" y="0px"
	 viewBox="0 0 850.4 850.4" style="enable-background:new 0 0 850.4 850.4;" xml:space="preserve">
<style type="text/css">
	.st0{fill:#1D1D1B;}
</style>
<g>
	<path class="st0" d="M439.6,638.4c0,27.5,22.3,49.7,49.7,49.7s49.7-22.3,49.7-49.7V525.7h-33.8v112.7c0,8.8-7.2,16-16,16
		s-16-7.2-16-16v-44.3c0-39.1-31.7-70.9-70.9-70.9s-70.9,31.7-70.9,70.9L332,642c0,25.4,20.9,46.1,46.4,46.1
		c25.4,0,46.1-20.7,46.1-46.1v-12.2c0-25.4-20.7-46.1-46.1-46.1c-4,0-8.1,0.7-11.9,1.6c3.8-16.4,18.7-28.6,36.2-28.6
		c20.5,0,37.1,16.7,37.1,37.1v44.5H439.6z M378.4,617.5c6.8,0,12.4,5.6,12.4,12.4V642c0,6.8-5.6,12.4-12.4,12.4S366,648.8,366,642
		v-12.2C366,623.1,371.4,617.5,378.4,617.5z"/>
	<path class="st0" d="M376.8,508.4c17.8,0,34.4-7,46.8-19.6c12.1-12.4,18.4-28.8,18-45.9V239.1c0-17.6,14.2-31.7,31.7-31.7
		c17.5,0,31.7,14.2,31.7,31.7v268.4h33.7V238.8c0-36.2-29.5-65.5-65.5-65.5s-65.5,29.5-65.5,65.5v204.1v0.5
		c0.2,8.1-2.7,15.8-8.5,21.8s-14,9.4-22.5,9.4c-17.6,0-31.7-14.2-31.7-31.7V180.6h-33.8v262.1C311.3,478.9,340.6,508.4,376.8,508.4z
		"/>
</g>
</svg>
