<?xml version="1.0" encoding="utf-8"?>
<!-- Generator: Adobe Illustrator 24.3.0, SVG Export Plug-In . SVG Version: 6.00 Build 0)  -->
<svg version="1.1" id="Layer_1" xmlns="http://www.w3.org/2000/svg" xmlns:xlink="http://www.w3.org/1999/xlink" x="0px" y="0px"
	 viewBox="0 0 850.4 850.4" style="enable-background:new 0 0 850.4 850.4;" xml:space="preserve">
<style type="text/css">
	.st0{fill:#1D1D1B;}
</style>
<path class="st0" d="M584.9,254.3c-1.3-45.8-40.5-82.7-88.2-82.7c-29.5,0-55.4,13.9-71.6,35.2c-16-21.3-42.1-35.2-71.5-35.2
	c-48.6,0-88.4,38.2-88.4,85.3v237c0,31.2,26.6,56.9,59,56.9s58.9-25.6,58.9-56.9V381.7c0-31.2-26.6-56.9-58.9-56.9
	c-9,0-17.6,2-25.2,5.4v-73.3c0-29.1,24.5-52.7,54.7-52.7s54.7,23.7,54.7,52.7v290.3h33.8V256.7c0-29.1,24.5-52.7,54.7-52.7
	c30.1,0,54.7,23.7,54.7,52.7v23v0.4c-7.7-3.5-16.2-5.4-25.2-5.4c-32.4,0-58.9,25.4-58.9,56.9v162.1c0,31.2,26.6,56.9,58.9,56.9
	c32.4,0,59-25.6,59-56.9L584.9,254.3L584.9,254.3z M324.2,357.2c13.9,0,25.2,10.8,25.2,24.3v112.2c0,13.5-11.2,24.3-25.2,24.3
	c-14,0-25.2-10.8-25.2-24.3V381.5C299,368,310.2,357.2,324.2,357.2z M551.2,493.7c0,13.5-11.2,24.3-25.2,24.3s-25.2-10.8-25.2-24.3
	V331.6c0-13.5,11.2-24.3,25.2-24.3s25.2,10.8,25.2,24.3V493.7z"/>
</svg>
