<?xml version="1.0" encoding="utf-8"?>
<!-- Generator: Adobe Illustrator 24.3.0, SVG Export Plug-In . SVG Version: 6.00 Build 0)  -->
<svg version="1.1" id="Layer_1" xmlns="http://www.w3.org/2000/svg" xmlns:xlink="http://www.w3.org/1999/xlink" x="0px" y="0px"
	 viewBox="0 0 850.4 850.4" style="enable-background:new 0 0 850.4 850.4;" xml:space="preserve">
<style type="text/css">
	.st0{fill:#1D1D1B;}
</style>
<path class="st0" d="M598,255.3c-1.4-44.2-38.2-80-84.1-82.1V79h-33.8v93.8c-13.3-0.2-28.8-0.2-40.5-0.4c-11.5-0.2-20-0.2-21.4-0.2
	l0,0c0,0,0,0-0.2,0c-12.8,0-25,2.4-36,6.9c-11-4.5-23.2-6.9-36-6.9c-50.4,0-91.6,38.2-93.6,86l0,0v3.9v24.6v259.8h33.8V286.6V262
	c0-31.7,27-57.6,60.1-57.6c0,0,0,0,0.2,0c-11.9,13.6-19.6,30.8-21.4,49.6h-0.4v8v24.6V481v7.5v6.5c0,31.9,25.9,57.8,57.6,57.8
	s57.6-25.9,57.6-57.8V286.6v-4.3V262c0-21.8-8.1-41.8-21.8-57.6c0,0,0,0,0.2,0l0,0c0.5,0,1.1,0,1.6,0l0,0c3.4,0,10.6,0,19.6,0.2
	c14.4,0.2,28.8,0.2,40.7,0.4v158.2l0,0v116.4v8v5.4c0,31,26.6,56.5,59,56.5s59-25.4,59-56.5v-8.8v-4.7V280.3v-22.9L598,255.3
	L598,255.3z M406.1,262v20.3v4.3V495c0,14-10.8,25.4-23.9,25.4c-13.3,0-23.9-11.4-23.9-25.4v-6.5V481V286.6V262
	c0-18.8,9.4-35.4,23.9-45.9C396.6,226.6,406.1,243.2,406.1,262z M564.2,479.7v4.7v8.8c0,13.4-11.2,24.1-25.2,24.1
	c-14,0-25.2-10.8-25.2-24.1v-5.4v-8V341.5l0,0V205.9c28.1,2.2,50.4,24.6,50.4,52.2V281L564.2,479.7L564.2,479.7z"/>
</svg>
