<?xml version="1.0" encoding="utf-8"?>
<!-- Generator: Adobe Illustrator 24.3.0, SVG Export Plug-In . SVG Version: 6.00 Build 0)  -->
<svg version="1.1" id="Layer_1" xmlns="http://www.w3.org/2000/svg" xmlns:xlink="http://www.w3.org/1999/xlink" x="0px" y="0px"
	 viewBox="0 0 850.4 850.4" style="enable-background:new 0 0 850.4 850.4;" xml:space="preserve">
<style type="text/css">
	.st0{fill:#1D1D1B;}
</style>
<g>
	<path class="st0" d="M511.9,178.2v299.5H338.5V407h112.3V244.1h-0.2c-2-38.2-34-68.6-72.9-68.6c-39.6,0-71.8,31.5-72.9,70.6l0,0
		V511h2.5v0.2h204.8v138.4h-49.3v-45.7c0-23.6-18.9-42.8-42.3-42.8s-42.3,19.1-42.3,42.8v79.7h33.8v-79.7c0-4.9,3.8-9,8.6-9
		c4.7,0,8.5,4.1,8.5,9v79.7h116.8V178.2H511.9z M338.7,248.2c0-21.4,17.6-38.9,39.1-38.9s39.1,17.3,39.1,38.9v125.1h-78.5V248.2
		H338.7z"/>
</g>
</svg>
