<?xml version="1.0" encoding="utf-8"?>
<!-- Generator: Adobe Illustrator 24.3.0, SVG Export Plug-In . SVG Version: 6.00 Build 0)  -->
<svg version="1.1" id="Layer_1" xmlns="http://www.w3.org/2000/svg" xmlns:xlink="http://www.w3.org/1999/xlink" x="0px" y="0px"
	 viewBox="0 0 850.4 850.4" style="enable-background:new 0 0 850.4 850.4;" xml:space="preserve">
<style type="text/css">
	.st0{fill:#1D1D1B;}
</style>
<g>
	<path class="st0" d="M477.7,516.1H338.6v-71.3h112.3l-0.2-208.5c-2-37.3-34-66.9-72.9-66.9c-39.6,0-71.8,30.7-72.9,68.9l0,0v311
		h144c-0.7,2.6-1.4,5.3-1.6,7.9l0,0v53.3c0,22.8,20.7,41.3,46.1,41.3s46.1-18.4,46.1-41.3l-0.2-53.8c-0.2-2.6-0.7-5.3-1.3-7.9h7.6
		V175.2h-33.8l0.2,340.8H477.7z M338.6,240c0-20.9,17.6-38,39.1-38s39.4,17.1,39.4,38v171.6h-78.5V240z M505.7,610.4
		c0,4-5.2,8.3-12.4,8.3s-12.4-4.4-12.4-8.3v-51.1c0-2.2,2-8.6,12.4-8.6c7.2,0,12.4,4.4,12.4,8.3V610.4z"/>
</g>
</svg>
