<?xml version="1.0" encoding="utf-8"?>
<!-- Generator: Adobe Illustrator 24.3.0, SVG Export Plug-In . SVG Version: 6.00 Build 0)  -->
<svg version="1.1" id="Layer_1" xmlns="http://www.w3.org/2000/svg" xmlns:xlink="http://www.w3.org/1999/xlink" x="0px" y="0px"
	 viewBox="0 0 850.4 850.4" style="enable-background:new 0 0 850.4 850.4;" xml:space="preserve">
<style type="text/css">
	.st0{fill:#1D1D1B;}
</style>
<g>
	<path class="st0" d="M545.7,547.2V171.5h-33.8v342.9H338.5v-71h112.3V235.9c0,0,1.8-66.6-73.1-66.6c-39.6,0-71.8,30.6-72.9,68.6
		l0,0v309.5h145.8c-1.6,4.4-2.2,9-2.2,13.8v2.2c0,24.7,20.7,44.8,46.1,44.8c4.3,0,8.3-0.7,12.4-1.7v6.6c0,5.9-5.6,10.7-12.4,10.7
		s-12.4-4.8-12.4-10.7h-33.8c0,24,20.7,43.5,46.1,43.5c25.4,0,46.1-19.4,46.1-43.5v-52c0,0-1.1-10.3-2.2-13.8H545.7L545.7,547.2z
		 M338.7,239.6c0-20.7,17.6-37.8,39.1-37.8s39.1,16.8,39.1,37.8v170.8h-78.5L338.7,239.6z M494.6,575.1c-6.8,0-12.4-5.5-12.4-12
		v-2.2c0-6.6,5.6-12,12.4-12c6.7,0,12.4,5.5,12.4,12v2.2C507,569.7,501.4,575.1,494.6,575.1z"/>
</g>
</svg>
