<?xml version="1.0" encoding="utf-8"?>
<!-- Generator: Adobe Illustrator 24.3.0, SVG Export Plug-In . SVG Version: 6.00 Build 0)  -->
<svg version="1.1" id="Layer_1" xmlns="http://www.w3.org/2000/svg" xmlns:xlink="http://www.w3.org/1999/xlink" x="0px" y="0px"
	 viewBox="0 0 850.4 850.4" style="enable-background:new 0 0 850.4 850.4;" xml:space="preserve">
<style type="text/css">
	.st0{fill:#1D1D1B;}
</style>
<g>
	<path class="st0" d="M457.6,521.9c-12.4,0-23.6,4.5-32.4,11.9c-8.8-7.4-20-11.9-32.4-11.9c-27.2,0-49.3,21.6-49.3,48.1v114.3h33.8
		V570c0-7.9,7-14.4,15.5-14.4c8.5,0,15.5,6.5,15.5,14.4v114.5h33.8V570c0-7.9,7-14.4,15.5-14.4c8.5,0,15.5,6.5,15.5,14.4v114.5h33.8
		V570C506.9,543.5,484.8,521.9,457.6,521.9z"/>
	<path class="st0" d="M499.8,265.8L499.8,265.8v-27.5c0-36.2-33.3-65.5-74.2-65.5c-40.5,0-73.6,28.8-74.2,64.6l0,0V336H385v-97.7
		l0,0c0-17.6,18.2-31.7,40.5-31.7c22.3,0,40.5,14.2,40.5,31.7v26.6c0,31.3-19.4,59.9-49.5,71.3l0,0c-40.3,17.8-65.9,56.5-65.9,99.7
		v77h149.2V379.4H466v99.9h-81.7c0,0,0-40.3,0-43.2c0-30.4,18.7-57.6,47.5-69.5l0,0C473.5,349.3,500,310.1,499.8,265.8z"/>
</g>
</svg>
