<?xml version="1.0" encoding="utf-8"?>
<!-- Generator: Adobe Illustrator 24.3.0, SVG Export Plug-In . SVG Version: 6.00 Build 0)  -->
<svg version="1.1" id="Layer_1" xmlns="http://www.w3.org/2000/svg" xmlns:xlink="http://www.w3.org/1999/xlink" x="0px" y="0px"
	 viewBox="0 0 850.4 850.4" style="enable-background:new 0 0 850.4 850.4;" xml:space="preserve">
<style type="text/css">
	.st0{fill:#1D1D1B;}
</style>
<path class="st0" d="M607.2,480.4H546V240.8h-0.2c-2-38.2-34-68.6-72.9-68.6c-22.5,0-42.8,10.1-56,26.3c-13.5-16-33.5-26.3-56-26.3
	c-40.3,0-72.9,32.6-72.9,72.7v269.1h33.8V244.8c0-21.4,17.6-38.9,39.1-38.9s39.1,17.3,39.1,38.9V513v0.9l0,0h33.8l0,0V244.6
	c0-21.4,17.5-38.9,39.1-38.9S512,223,512,244.6v269.1h94.5c-2.2,18.4-13.5,34.2-29.5,42.3c-2.5,0.9-18.7,6.1-24.8,6.1H297.8
	c-30.1,0-54.7-24.5-54.7-54.7V177.3h-33.8v330.5c0,46.4,35.8,84.4,81.2,88v0.2H546c-0.2,1.4-0.2,9.2-0.2,9.2
	c0,25.4,20.7,46.1,46.1,46.1c4.3,0,8.3-0.7,12.4-1.8v9.5c0,7.9-5.6,14.4-12.4,14.4s-12.4-6.5-12.4-14.4h-33.8
	c0,26.5,20.7,48.2,46.1,48.2c25.4,0,46.1-21.6,46.1-48.2v-61.4h-0.2c-0.7-13.5-7.2-25.4-17.3-33.3c11.5-13.7,18.9-31.1,20.2-50.2
	h0.2V174.8h-33.8L607.2,480.4z M591.9,617.9c-6.8,0-12.4-5.6-12.4-12.4v-5.2c0-4.3,2-7.9,5.2-10.1c1.6-0.7,3.2-1.4,4.7-2
	c0.7-0.2,1.6-0.2,2.2-0.2c6.8,0,12.4,5.6,12.4,12.4v5.2C604.3,612.2,598.7,617.9,591.9,617.9z"/>
</svg>
