<?xml version="1.0" encoding="utf-8"?>
<!-- Generator: Adobe Illustrator 24.3.0, SVG Export Plug-In . SVG Version: 6.00 Build 0)  -->
<svg version="1.1" id="Layer_1" xmlns="http://www.w3.org/2000/svg" xmlns:xlink="http://www.w3.org/1999/xlink" x="0px" y="0px"
	 viewBox="0 0 850.4 850.4" style="enable-background:new 0 0 850.4 850.4;" xml:space="preserve">
<style type="text/css">
	.st0{fill:#1D1D1B;}
</style>
<path class="st0" d="M460.5,239.2c0-41.1-34.2-74.6-76.1-74.6s-76,33.6-76,74.6v309.7h33.8V239.2c0-23,18.9-41.5,42.3-41.5
	c23.4,0,42.3,18.5,42.3,41.5v309.7h1.4l0,0H542v-33.1h-81.4L460.5,239.2z"/>
</svg>
