<?xml version="1.0" encoding="utf-8"?>
<!-- Generator: Adobe Illustrator 24.3.0, SVG Export Plug-In . SVG Version: 6.00 Build 0)  -->
<svg version="1.1" id="Layer_1" xmlns="http://www.w3.org/2000/svg" xmlns:xlink="http://www.w3.org/1999/xlink" x="0px" y="0px"
	 viewBox="0 0 850.4 850.4" style="enable-background:new 0 0 850.4 850.4;" xml:space="preserve">
<path d="M534.1,171.7c-29.5,0-55.4,14.4-71.3,36.7c-16.4-22.1-42.5-36.7-72.2-36.7c-11.9,0-23.2,2.2-33.5,6.5
	c-10.6-4.3-22.3-6.5-34.4-6.5c-48.8,0-89.1,37.6-93.4,85.5h-0.4V547h33.8V265.5c0-32.4,25.6-58.7,57.8-59.9
	c-11.5,14.4-18.4,32.2-19.4,51.8l0,0v236.7c0,31.7,25.9,57.6,57.6,57.6s57.6-25.9,57.6-57.6V390.6c0-18.7-6.1-34.6-16.4-45.9
	c10.4-11.2,16.4-27.2,16.4-45.9v-41.6c0,0,1.4-37.6-21.6-51.5c28.8,2.2,51.5,26.3,51.5,55.6V547h33.8V259.4c0-29.7,24.3-54,54-54
	c53.5,0,54,59.8,54,59.8c-7.2-3.4-15.5-5.2-23.8-5.2c-31.7,0-57.6,25.9-57.6,57.6v175.9c0,31.7,25.9,57.6,57.6,57.6
	c31.7,0,57.6-25.9,57.6-57.6V259.4C621.8,211,582.5,171.7,534.1,171.7z M382.7,298.6c0,13.3-5.6,29-21.4,29h-17.8v33.8h17.8
	c15.8,0,21.4,15.5,21.4,29v103.3c0,13.3-10.8,23.9-23.9,23.9s-24.1-10.6-24.1-23.6V261.2c0-18.2,8.8-34.7,22.5-44.8
	c15.3,10.8,25.4,28.8,25.4,49.1V298.6z M588.1,493.6c0,13.3-10.8,23.9-23.9,23.9s-23.8-10.8-23.8-23.9V317.9
	c0-13.3,10.8-23.9,23.8-23.9s23.9,10.8,23.9,23.9V493.6z"/>
</svg>
