<?xml version="1.0" encoding="utf-8"?>
<!-- Generator: Adobe Illustrator 24.3.0, SVG Export Plug-In . SVG Version: 6.00 Build 0)  -->
<svg version="1.1" id="Layer_1" xmlns="http://www.w3.org/2000/svg" xmlns:xlink="http://www.w3.org/1999/xlink" x="0px" y="0px"
	 viewBox="0 0 850.4 850.4" style="enable-background:new 0 0 850.4 850.4;" xml:space="preserve">
<style type="text/css">
	.st0{fill:#1D1D1B;}
</style>
<g>
	<path class="st0" d="M332.8,170.7c-55.4,0-100.4,43.4-100.4,96.7l-0.2,225.1c0,31.2,26.3,56.6,58.7,56.6
		c32.2,0,58.5-25.2,58.7-56.2l0,0V329.4l0,0c-0.9-30.6-27-55.1-58.7-55.1c-8.8,0-17.3,2-24.8,5.2v-12.4c0-35.3,29.9-64.2,66.6-64.2
		s66.6,28.8,66.6,64.2v58.1c0,12.8-5.6,28-21.4,28h-17.8v32.5h17.8c15.8,0,21.4,15,21.4,28v132.7h33.8V413.8
		c0-18-6.1-33.4-16.4-44.2c10.4-10.8,16.4-26.2,16.4-44.2v-58.1C433.2,214.1,388.2,170.7,332.8,170.7z M291,306.9
		c13.7,0,25,10.8,25,24.3v161.3c0,13.2-11.2,24.1-25,24.1c-13.7,0-25-10.8-25-24.1l0.2-164.6C267.8,316,278.4,306.9,291,306.9z"/>
	<path class="st0" d="M552.9,170.7c-19.8,0-37.6,8.5-49.7,21.9c-12.6-13.4-31.1-21.9-51.3-21.9c-3.1,0-6.5,0.2-9.7,0.7l4.7,32.3
		c1.6-0.2,3.4-0.4,4.9-0.4c19.6,0,35.3,15.4,35.3,34v131.6h33.7V234c0-16.9,14.2-30.6,31.7-30.6c17.5,0,31.7,13.7,31.7,30.6v240.4
		c0,23.8-20.2,43.4-45,43.4s-45-19.5-45-43.4v-19.9h-33.8v19.9c0,41.8,35.3,75.9,78.8,75.9c43.4,0,78.8-34,78.8-75.9V233.8
		C618.6,199.1,589.1,170.7,552.9,170.7z"/>
</g>
</svg>
