<?xml version="1.0" encoding="utf-8"?>
<!-- Generator: Adobe Illustrator 24.3.0, SVG Export Plug-In . SVG Version: 6.00 Build 0)  -->
<svg version="1.1" id="Layer_1" xmlns="http://www.w3.org/2000/svg" xmlns:xlink="http://www.w3.org/1999/xlink" x="0px" y="0px"
	 viewBox="0 0 850.4 850.4" style="enable-background:new 0 0 850.4 850.4;" xml:space="preserve">
<style type="text/css">
	.st0{fill:#1D1D1B;}
</style>
<path class="st0" d="M480.3,515.7c-0.9,0-1.6,0-1.8,0c-16.6-0.9-36.2-14.9-36.2-31.7V193.7c0-37.1-35.3-63.7-68.2-65.5
	c-0.7,0-37.8-0.2-37.8-0.2v419h33.8V162c0.9,0,1.8,0,2.2,0c16.6,0.9,36.2,14.9,36.2,31.7V484c0,37.1,35.3,63.7,68.2,65.5
	c1.6,0,7.2,0,7.4,0l0,0h29.9V129.6h-33.8L480.3,515.7L480.3,515.7z"/>
</svg>
