<?xml version="1.0" encoding="utf-8"?>
<!-- Generator: Adobe Illustrator 24.3.0, SVG Export Plug-In . SVG Version: 6.00 Build 0)  -->
<svg version="1.1" id="Layer_1" xmlns="http://www.w3.org/2000/svg" xmlns:xlink="http://www.w3.org/1999/xlink" x="0px" y="0px"
	 viewBox="0 0 850.4 850.4" style="enable-background:new 0 0 850.4 850.4;" xml:space="preserve">
<style type="text/css">
	.st0{fill:#1D1D1B;}
</style>
<path class="st0" d="M610.1,250.1c-1.4-46.3-40.5-83.6-88.2-83.6c-26.5,0-50.2,11.4-66.4,29.4c-1.8-2.6-4.1-5-6.3-7.2
	c-12.4-12.5-29-19.3-47-19.3c-19.1,0-36.7,8.1-48.6,20.9c-0.4-0.7-1.1-1.1-1.6-1.8c-12.4-12.3-29-19.1-46.8-19.1
	c-36.2,0-65.5,28.8-65.5,63.9v314.6h33.8V233.2c0-17.1,14.2-31,31.7-31c8.6,0,16.6,3.3,22.5,9.2c5.6,5.7,8.8,13.2,8.6,21.3V451l0,0
	v96.8h33.8V233.2c0-17.1,14.4-31,32.2-31c8.8,0,16.9,3.3,22.9,9.4c5.6,5.7,8.8,13.2,8.6,21.1v27.7l0,0V276v270.5h33.8V275.8v-23.3
	c0-29.4,24.5-53.3,54.7-53.3c30.1,0,54.7,23.9,54.7,53.3v23.3v0.4c-7.7-3.5-16.2-5.5-25.2-5.5c-32.4,0-59,25.9-59,57.5v9.4v4.2
	v136.8v8.1v5.5c0,31.6,26.5,57.5,59,57.5c32.4,0,59-25.9,59-57.5v-8.8v-4.8V341.9v-13.6v-52.5v-23.3L610.1,250.1L610.1,250.1z
	 M576.6,478.6v4.8v9c0,13.6-11.2,24.6-25.2,24.6s-25.2-11-25.2-24.6V487v-8.1V342.1v-4.2v-9.4c0-13.6,11.2-24.6,25.2-24.6
	s25.2,11,25.2,24.6v13.6V478.6z"/>
</svg>
