<?xml version="1.0" encoding="utf-8"?>
<!-- Generator: Adobe Illustrator 24.3.0, SVG Export Plug-In . SVG Version: 6.00 Build 0)  -->
<svg version="1.1" id="Layer_1" xmlns="http://www.w3.org/2000/svg" xmlns:xlink="http://www.w3.org/1999/xlink" x="0px" y="0px"
	 viewBox="0 0 850.4 850.4" style="enable-background:new 0 0 850.4 850.4;" xml:space="preserve">
<style type="text/css">
	.st0{fill:#1D1D1B;}
</style>
<g>
	<path class="st0" d="M486,203.4v-97.9h-33.8v99.7c-19.8,4.7-37.4,15.8-49.9,30.8c-11.7-17.6-31.7-29.2-54.5-29.2
		c-17.8,0-34.4,7-46.8,19.6c-11.9,12.4-18.5,28.6-18,45.7v275h33.8V272v-0.4c-0.2-8.1,2.7-15.8,8.5-21.6c5.9-6.1,14-9.4,22.5-9.4
		c17.6,0,31.7,14.2,31.7,31.7v274.9h33.8V322h0.7v-25.7c0-25.4,16-47.2,38.2-56v223.4v8.1v6.3c0,33.3,25.9,60.3,57.6,60.3
		s57.6-27,57.6-60.3V321.8v-19.1v-6.3C567.6,248.9,531.9,209.5,486,203.4z M533.9,322v156.4c0,14.6-10.8,26.5-23.9,26.5
		c-13.1,0-23.9-11.9-23.9-26.5v-6.3V464V237.6c27.2,5.6,47.9,29.9,47.9,58.7v6.3V322H533.9z"/>
	<path class="st0" d="M473.1,547.2c-50.6,0-91.8,41.2-91.8,91.8c0,38.2,24.1,72.7,59.9,86.2l11.7-31.7
		c-22.7-8.3-37.8-30.4-37.8-54.5c0-32,26.1-58.1,58.1-58.1s58.1,26.1,58.1,58.1c0,24.3-15.3,46.3-38.3,54.7l11.5,31.7
		c36-13.3,60.3-47.9,60.3-86.2C564.9,588.4,523.8,547.2,473.1,547.2z"/>
</g>
</svg>
