<?xml version="1.0" encoding="utf-8"?>
<!-- Generator: Adobe Illustrator 24.3.0, SVG Export Plug-In . SVG Version: 6.00 Build 0)  -->
<svg version="1.1" id="Layer_1" xmlns="http://www.w3.org/2000/svg" xmlns:xlink="http://www.w3.org/1999/xlink" x="0px" y="0px"
	 viewBox="0 0 850.4 850.4" style="enable-background:new 0 0 850.4 850.4;" xml:space="preserve">
<style type="text/css">
	.st0{fill:#1D1D1B;}
</style>
<path class="st0" d="M528.7,528V403.6c0-18.4-6.1-34.1-16.4-45.1c10.4-11.1,16.4-26.8,16.4-45.1v-83.6c0-35.6-29.5-64.4-65.5-64.4
	c-19.4,0-36.7,8.2-48.8,21c-0.4-0.7-14.4-21-48.4-21c-36.2,0-65.5,29-65.5,64.4v317.1h33.8V229.7c0-17.3,14.2-31.2,31.7-31.2
	c27.2,0,31.1,19.7,31.1,30.8v319.1h33.8V229.7c0-17.3,14.6-31.2,32.4-31.2c17.5,0,31.7,13.9,31.7,31.2v83.9
	c0,13.1-5.6,28.5-21.4,28.5h-17.8v33.2h17.8c15.8,0,21.4,15.3,21.4,28.5v117.9c-21.1,4-37.4,22.3-37.4,44.5v52
	c0,25,20.7,45.4,46.1,45.4c25.4,0,46.1-20.4,46.1-45.4v-52C550.1,550.1,541.5,536.2,528.7,528z M516.3,618.1
	c0,6.6-5.6,12.2-12.4,12.2s-12.4-5.5-12.4-12.2v-52c0-6.6,5.6-12.2,12.4-12.2s12.4,5.5,12.4,12.2V618.1z"/>
</svg>
