<?xml version="1.0" encoding="utf-8"?>
<!-- Generator: Adobe Illustrator 24.3.0, SVG Export Plug-In . SVG Version: 6.00 Build 0)  -->
<svg version="1.1" id="Layer_1" xmlns="http://www.w3.org/2000/svg" xmlns:xlink="http://www.w3.org/1999/xlink" x="0px" y="0px"
	 viewBox="0 0 850.4 850.4" style="enable-background:new 0 0 850.4 850.4;" xml:space="preserve">
<style type="text/css">
	.st0{fill:#1D1D1B;}
</style>
<path class="st0" d="M641.4,264.6c0-50.6-42.1-91.7-93.8-91.7c-12.8,0-25,2.4-36,7c-11-4.6-23.2-7-36-7c-27.7,0-52.6,11.9-69.8,30.6
	c-2.5-4-5.4-7.9-9-11.2c-12.4-12.3-29-19.1-46.8-19.1c-36.2,0-65.5,28.8-65.5,64v261.2h33.8V236.9c0-17.2,14.2-31,31.7-31
	c8.5,0,16.6,3.3,22.5,9.2c5.6,5.7,8.8,13.2,8.5,21.3v261.9h33.8V289.7h0.7v-25.1c0-32.3,27-58.7,60.1-58.7c0,0,0,0,0.2,0
	c-13.5,15.8-21.8,36.3-21.8,58.7v0.2v24.8v140.1v0.7v13.6c0,32.5,25.9,58.9,57.6,58.9s57.6-26.4,57.6-58.9V289.9v-25.3
	c0-22.2-8.1-42.7-21.8-58.7c0,0,0,0,0.2,0c33.1,0,60.1,26.4,60.1,58.7v195.3c-0.7,48.2-41,87.1-90.2,87.1H326
	c-45.9,0-83.2-36.5-83.2-81.4v-32.5V178H209v255.1v32.5c0,60.9,48.8,110.6,110.2,114.1v0.2h206.3v-0.2c3.4-0.2,6.8-0.4,9.9-1.1v58.1
	c0,24.8,20.7,45.1,46.1,45.1h5.8c25.4,0,46.1-20.2,46.1-45.1v-59.8c0-16.5-9.2-31-22.7-38.7c18.7-20.9,29.9-48.2,30.4-77.8l0,0v-0.4
	c0-0.4,0-0.7,0-1.1v-35l0,0L641.4,264.6z M535.4,264.6v25.1v154.2c0,14.3-10.8,25.9-23.9,25.9c-13.1,0-23.9-11.7-23.9-25.9v-13.6
	v-0.7V289.5v-24.8v-0.2c0-19.1,9.4-36.1,23.9-46.8C526,228.3,535.4,245.5,535.4,264.6z M599.8,636.7c0,6.6-5.6,12.1-12.4,12.1h-5.8
	c-6.8,0-12.4-5.5-12.4-12.1v-59.8c0-6.6,5.6-12.1,12.4-12.1h5.8c6.8,0,12.4,5.5,12.4,12.1V636.7z"/>
</svg>
