<?xml version="1.0" encoding="utf-8"?>
<!-- Generator: Adobe Illustrator 24.3.0, SVG Export Plug-In . SVG Version: 6.00 Build 0)  -->
<svg version="1.1" id="Layer_1" xmlns="http://www.w3.org/2000/svg" xmlns:xlink="http://www.w3.org/1999/xlink" x="0px" y="0px"
	 viewBox="0 0 850.4 850.4" style="enable-background:new 0 0 850.4 850.4;" xml:space="preserve">
<style type="text/css">
	.st0{fill:#1D1D1B;}
</style>
<path class="st0" d="M634.1,240.7c-1.1-37.6-33.3-67.8-72.9-67.8c-73.1,0-73.1,65.9-73.1,65.9v275.5h-45V237
	c0-24.4-8.1-62.8-64.8-62.8c-19.1,0-36.5,8-48.4,20.5c-0.5-0.4-12.8-20.3-48.4-20.3c-36.2,0-65.5,28.3-65.5,62.8v309.4h33.8V237
	c0-16.8,14.2-30.4,31.7-30.4c16.6,0,31,8,31,30v309.8h33.8V237c0-16.8,14.2-30.4,31.7-30.4c15.8,0,31,8.2,31,30v310.1l130,0.2
	c-1.1,3.7-1.8,7.8-1.8,11.9v4.1c0,24.4,20.7,44.3,46.1,44.3c4.3,0,8.3-0.6,12.4-1.7v7.1c0,6.3-5.6,11.4-12.4,11.4
	s-12.4-5.2-12.4-11.4h-33.8c0,24.2,20.7,43.8,46.1,43.8c25.4,0,46.1-19.6,46.1-43.8v-55.9l0,0c-0.2-3.5-0.7-6.7-1.6-9.9h6.3
	L634.1,240.7L634.1,240.7z M583.7,574.5c-6.8,0-12.4-5.4-12.4-11.9v-4.1c0-6.5,5.6-11.9,12.4-11.9s12.4,5.4,12.4,11.9v4.1
	C596.1,569.1,590.5,574.5,583.7,574.5z M600.6,514.3h-78.5V242.7c0-20.5,17.5-37.4,39.1-37.4c21.6,0,39.4,16.6,39.4,37.4V514.3z"/>
</svg>
