<?xml version="1.0" encoding="utf-8"?>
<!-- Generator: Adobe Illustrator 24.3.0, SVG Export Plug-In . SVG Version: 6.00 Build 0)  -->
<svg version="1.1" id="Layer_1" xmlns="http://www.w3.org/2000/svg" xmlns:xlink="http://www.w3.org/1999/xlink" x="0px" y="0px"
	 viewBox="0 0 850.4 850.4" style="enable-background:new 0 0 850.4 850.4;" xml:space="preserve">
<style type="text/css">
	.st0{fill:#1D1D1B;}
</style>
<path class="st0" d="M544.7,175.3c-17.8,0-34.4,6.7-46.8,18.8c-0.4,0.4-1.1,1.1-1.6,1.7c-12.1-12.5-29.5-20.6-48.6-20.6
	c-18,0-34.2,3.5-53.3,26.2c-16.2-17.7-40.1-29-66.4-29c-47.9,0-86.8,36.8-88.2,82.4l0,0v238.9c0,31.2,26.6,56.7,58.9,56.7
	s58.9-25.5,58.9-56.7V332.2c0-31.2-26.5-56.7-58.9-56.7c-9,0-17.6,1.9-25.2,5.4v-0.6v-22.9c0-29,24.5-52.6,54.7-52.6
	c30.1,0,54.7,23.6,54.7,52.6v289.5h33.8V237.6c0-23.2,22.7-30.1,31.5-30.1c17.8,0,32.2,13.6,32.2,30.5v310.1h33.8V238
	c0,0-0.5-12.8,8.5-21.4c5.8-5.8,14-9.1,22.5-9.1c17.5,0,31.7,13.6,31.7,30.5v310.1h33.8V238.3C610.4,203.4,580.9,175.3,544.7,175.3z
	 M298.5,307.7c13.9,0,25.2,10.8,25.2,24.2v161.6c0,13.4-11.2,24.2-25.2,24.2c-14,0-25.2-10.8-25.2-24.2V331.7
	C273.3,318.5,284.8,307.7,298.5,307.7z"/>
</svg>
