<?xml version="1.0" encoding="utf-8"?>
<!-- Generator: Adobe Illustrator 24.3.0, SVG Export Plug-In . SVG Version: 6.00 Build 0)  -->
<svg version="1.1" id="Layer_1" xmlns="http://www.w3.org/2000/svg" xmlns:xlink="http://www.w3.org/1999/xlink" x="0px" y="0px"
	 viewBox="0 0 850.4 850.4" style="enable-background:new 0 0 850.4 850.4;" xml:space="preserve">
<style type="text/css">
	.st0{fill:#1D1D1B;}
</style>
<path class="st0" d="M557.3,171.2V77.5h-33.8v95.4c-19.8,4.5-37.4,15.1-50,29.5c-11.7-16.8-31.7-28-54.5-28
	c-17.8,0-34.4,6.7-46.8,18.7c-2.2,2.4-4.5,4.7-6.3,7.1c-16.2-17.7-39.8-28.8-66.4-28.8c-47.9,0-86.8,36.6-88.2,82l0,0v2.6v22.8v51.4
	v13.3v134.1v4.7v8.8c0,31,26.6,56.4,58.9,56.4s59-25.4,59-56.4v-5.4v-8V343.8v-4.1v-9.3c0-31-26.6-56.4-59-56.4
	c-9,0-17.6,1.9-25.2,5.4V279v-22.8c0-28.8,24.5-52.3,54.7-52.3c30.2,0,54.7,23.5,54.7,52.3V279v265.2h33.8V279v-15.5l0,0v-26.7v-0.4
	c-0.2-7.7,2.7-15.1,8.6-20.7c5.9-5.8,13.9-9,22.5-9c17.5,0,31.7,13.6,31.7,30.4v19.2v286.5v1.7h33.8v-1.7V284.6h0.7v-24.5
	c0-24.3,16-45.2,38.2-53.6v272.3v7.5v6.5c0,31.9,25.9,57.7,57.6,57.7s57.6-25.8,57.6-57.7V284.6v-4.3v-20.2
	C638.9,214.7,603.4,177,557.3,171.2z M270.2,306.4c13.9,0,25.2,10.8,25.2,24.1v9.3v4.1v134.1v8v5.4c0,13.3-11.2,24.1-25.2,24.1
	S245,504.6,245,491.3v-8.8v-4.7V343.6v-13.3C245,317.1,256.4,306.4,270.2,306.4z M605.2,284.6v208.2c0,14-10.8,25.4-23.8,25.4
	s-24.1-11.4-24.1-25.4v-6.5v-7.5V203.9c27.2,5.4,47.9,28.6,47.9,56.2v20.2V284.6z"/>
</svg>
