<?xml version="1.0" encoding="utf-8"?>
<!-- Generator: Adobe Illustrator 24.3.0, SVG Export Plug-In . SVG Version: 6.00 Build 0)  -->
<svg version="1.1" id="Layer_1" xmlns="http://www.w3.org/2000/svg" xmlns:xlink="http://www.w3.org/1999/xlink" x="0px" y="0px"
	 viewBox="0 0 850.4 850.4" style="enable-background:new 0 0 850.4 850.4;" xml:space="preserve">
<style type="text/css">
	.st0{fill:#1D1D1B;}
</style>
<g>
	<path class="st0" d="M527.5,172.9L527.5,172.9c-15.8,0-30.4,6-41.4,17.1c-10.6-10.5-25.4-17.1-41.6-17.1l0,0
		c-16,0-31.1,6.2-42.1,17.6c-1.4,1.3-2.7,2.9-3.8,4.2c-14.2-14.9-34.4-24.2-56.7-24.2c-42.3,0-76.9,33.4-78.1,74.9l0,0v2.2v20.2
		v45.4V325v118.7v4.2v7.8c0,28.9,23.9,52.3,52.9,52.3s52.9-23.6,52.9-52.3v-4.9v-7.1V325v-3.8V313c0-28.9-23.9-52.3-52.9-52.3
		c-6.8,0-13.3,1.3-19.1,3.6v-16.9c0-24.2,19.8-43.8,44.3-43.8c24.5,0,44.3,19.6,44.3,43.8v20.2v234.8h33.8V267.8v-13.6l0,0v-23.6
		v-0.4c-0.2-6.2,2.2-12,6.5-16.7c4.7-4.7,11-7.3,17.8-7.3c13.7,0,25.2,11.1,25.2,24.5v272.8h33.8v-83.8l0,0v-189v-0.4
		c-0.2-6.2,2.2-12.2,6.5-16.7c4.7-4.7,10.8-7.3,17.5-7.3l0,0c13.7,0,24.8,11.1,24.8,24.5v272.8h33.8V230.9
		C586.2,198.9,559.9,172.9,527.5,172.9z M316.6,294.3c10.6,0,19.1,8.4,19.1,18.9v8.2v3.8v118.7v7.1v4.7c0,10.5-8.6,18.9-19.1,18.9
		s-19.1-8.4-19.1-18.9v-7.8v-4.2V325v-11.8C297.5,302.8,306.1,294.3,316.6,294.3z"/>
	<path class="st0" d="M515.3,516.9c-18.9,0-36.2,7.8-48.8,20.2c-9.9-12.5-25-20.2-41.9-20.2c-14.4,0-27.7,5.6-37.8,15.8
		c-1.4,1.3-2.5,2.7-3.6,4c-12.6-12.5-29.9-20-48.6-20c-38.9,0-70.6,32.5-70.6,72.3v32v3.3v2v4.7v5.3c0,25.8,20.7,46.9,46.1,46.9
		c25.4,0,46.1-20.9,46.1-46.9v-5.3v-4.7v-5.3c0-25.8-20.7-46.9-46.1-46.9c-3.4,0-6.8,0.4-9.9,1.1c5.2-14.7,18.7-25.1,34.6-25.1
		c20.5,0,36.9,17.6,36.9,38.9v18.5v69.4h33.8v-69.4v-14.7l0,0v-21.8v-0.4c-0.2-5.6,1.8-10.9,5.9-14.9c3.6-3.8,8.6-5.8,13.7-5.8
		c11,0,20,9.6,20,21.1v104.5h33.8v-68l0,0v-18.5c0-21.6,16.6-38.9,36.9-38.9c15.8,0,29.2,10.5,34.7,25.1c-3.4-0.9-7-1.3-10.6-1.3
		c-25.9,0-46.8,21.3-46.8,47.6v3.6v6.9v3.6c0,26.2,20.9,47.6,46.8,47.6s46.8-21.3,46.8-47.6v-3.6v-6.9v-3.6v-32.7
		C586.2,549.1,554.5,516.9,515.3,516.9z M309.9,607.4c6.8,0,12.4,6,12.4,13.6v5.3v4.7v5.3c0,7.3-5.6,13.6-12.4,13.6
		s-12.4-6-12.4-13.6v-5.3v-4.7v-2v-3.3C297.5,613.4,303.1,607.4,309.9,607.4z M552.4,632v3.6c0,7.8-5.8,14.2-13,14.2
		c-7.2,0-13-6.4-13-14.2V632v-6.9v-3.6c0-7.8,5.8-14.2,13-14.2s13,6.4,13,14.2v3.6V632z"/>
</g>
</svg>
