<?xml version="1.0" encoding="utf-8"?>
<!-- Generator: Adobe Illustrator 24.3.0, SVG Export Plug-In . SVG Version: 6.00 Build 0)  -->
<svg version="1.1" id="Layer_1" xmlns="http://www.w3.org/2000/svg" xmlns:xlink="http://www.w3.org/1999/xlink" x="0px" y="0px"
	 viewBox="0 0 850.4 850.4" style="enable-background:new 0 0 850.4 850.4;" xml:space="preserve">
<style type="text/css">
	.st0{fill:#1D1D1B;}
</style>
<g>
	<path class="st0" d="M671.8,177.3c-32.4,0-59,25.3-59,56.2v160.1c0,30.9,26.5,56.2,59,56.2c9,0,17.5-1.9,25.2-5.4v0.4v22.7
		c0,28.7-24.5,52.1-54.7,52.1s-54.7-23.4-54.7-52.1V179.6h-33.8c0,0,0,308.9,0,310.9c-0.7,16.1-15.1,28.9-32.2,28.9
		c-8.5,0-31.1-6-31.1-29.8V237.3c0-34.5-29.5-62.4-65.5-62.4c-19.6,0-37.1,8.1-49,21c-12.1-12.4-29.5-20.4-48.6-20.4
		c-18,0-34.6,6.6-47,18.9c-2.7,2.8-5.2,5.6-7.4,8.6c-16.2-16.9-39.4-27.4-65.2-27.4c-47.9,0-86.8,36.4-88.2,81.7l0,0v236.6
		c0,30.9,26.6,56.2,58.9,56.2s58.9-25.3,58.9-56.2V333.8c0-30.9-26.6-56.2-58.9-56.2c-9,0-17.6,1.9-25.2,5.4v-0.6v-22.7
		c0-28.7,24.5-52.1,54.7-52.1s54.7,23.4,54.7,52.1v286.8h33.8V237.3c-0.2-7.7,2.7-15,8.6-20.6c6.1-5.8,14.2-9.2,22.9-9.2
		c17.8,0,32.2,13.5,32.2,30.2V547h33.8V237.3c0-16.7,14.2-30.2,31.7-30.2c17.5,0,31.7,13.5,31.7,30.2v251.8
		c0,43.1,30.1,62.4,64.8,62.4c23,0,43.2-10.9,54.9-27.9c16.2,17.1,39.6,27.9,65.5,27.9c47.9,0,86.8-36.4,88.2-81.7l0,0V233.5
		C730.7,202.6,704.4,177.3,671.8,177.3z M178.6,309.6c13.9,0,25.2,10.7,25.2,24v160.1c0,13.3-11.2,24-25.2,24
		c-13.9,0-25.2-10.7-25.2-24V333.4C153.4,320.3,164.6,309.6,178.6,309.6z M697,393.8c0,13.3-11.2,24-25.2,24
		c-14,0-25.2-10.7-25.2-24V233.7c0-13.3,11.2-24,25.2-24c14,0,25.2,10.7,25.2,24V393.8z"/>
</g>
</svg>
