<?xml version="1.0" encoding="utf-8"?>
<!-- Generator: Adobe Illustrator 24.3.0, SVG Export Plug-In . SVG Version: 6.00 Build 0)  -->
<svg version="1.1" id="Layer_1" xmlns="http://www.w3.org/2000/svg" xmlns:xlink="http://www.w3.org/1999/xlink" x="0px" y="0px"
	 viewBox="0 0 850.4 850.4" style="enable-background:new 0 0 850.4 850.4;" xml:space="preserve">
<style type="text/css">
	.st0{fill:#1D1D1B;}
</style>
<path class="st0" d="M634.3,548.6l0.4-272.8c0-58.3-48.8-105.8-109.1-105.8c-14,0-27.2,2.6-39.4,7.2c-11.9-4.6-25-7.2-38.7-7.2
	c-34.6,0-65.5,16.4-84.8,41.5C347.1,186.6,319,170,287,170c-48.8,0-88.4,38.4-88.4,85.7v238c0,31.4,26.6,57.2,58.9,57.2
	s58.9-25.7,58.9-57.2V345.9c0-31.4-26.5-57.2-58.9-57.2c-9,0-17.6,2-25.2,5.5v-38.6c0-29.2,24.5-53,54.7-53
	c30.1,0,54.7,23.8,54.7,53v292.2h33.8v-275c0-38.4,31.9-69.6,71.3-69.8c-18.7,19-30.1,44.7-30.1,73.1v212.7h0.2
	c2,34.9,31.9,62.6,68.2,62.6c36.5,0,66.2-27.7,68.2-62.6h0.2V272.6c0-27.1-10.8-51.5-28.4-69.8c0.2,0,0.5,0,0.7,0
	c41.4,0,75.4,32.7,75.4,73.1l-0.4,272.7L634.3,548.6z M257.8,321.7c13.9,0,25.2,10.9,25.2,24.4v147.7c0,13.5-11.2,24.4-25.2,24.4
	c-13.9,0-25.2-10.9-25.2-24.4V345.9C232.6,332.6,243.8,321.7,257.8,321.7z M519.7,272.6v212.3c0,18.5-15.5,33.6-34.6,33.6
	s-34.6-15.1-34.6-33.6v-209c0-26.2,14.4-49.3,35.8-62.2C506.2,226.1,519.7,247.7,519.7,272.6z"/>
</svg>
