<?xml version="1.0" encoding="utf-8"?>
<!-- Generator: Adobe Illustrator 24.3.0, SVG Export Plug-In . SVG Version: 6.00 Build 0)  -->
<svg version="1.1" id="Layer_1" xmlns="http://www.w3.org/2000/svg" xmlns:xlink="http://www.w3.org/1999/xlink" x="0px" y="0px"
	 viewBox="0 0 850.4 850.4" style="enable-background:new 0 0 850.4 850.4;" xml:space="preserve">
<style type="text/css">
	.st0{fill:#1D1D1B;}
</style>
<g>
	<path class="st0" d="M647.2,177.1V515h-60.8c11.5-14,18.7-31.6,18.9-50.8l0,0V279.3c0-57.5-48.8-104.4-109.1-104.4
		c-13.9,0-27.2,2.6-39.4,7.1c-11.9-4.5-25-7.1-38.7-7.1c-34.6,0-65.5,16.1-84.8,40.9c-15.5-24.5-43.6-40.9-75.6-40.9
		c-48.8,0-88.4,37.9-88.4,84.6v235.2c0,31,26.6,56.4,58.9,56.4s59-25.4,59-56.4V348.9c0-31-26.6-56.4-59-56.4
		c-9,0-17.6,1.9-25.2,5.4v-38.1c0-28.8,24.5-52.3,54.7-52.3s54.7,23.5,54.7,52.3v288h33.8V276.3c0-37.9,31.9-68.7,71.3-68.9
		c-18.7,18.7-30.1,44.1-30.1,72.1v139.3c0,36.2,30.6,65.4,68.4,65.4s68.4-29.3,68.4-65.4V276.6c0-26.7-10.8-50.8-28.4-68.9
		c0.2,0,0.4,0,0.7,0c41.4,0,75.4,32.3,75.4,72.1v183.4c0,28.8-24.5,52.3-54.7,52.3H392.7v32.3h288.4V177.5h-34V177.1z M228.4,324.8
		c13.9,0,25.2,10.8,25.2,24.1v145.9c0,13.3-11.2,24.1-25.2,24.1s-25.2-10.8-25.2-24.1V348.9C203.2,335.5,214.5,324.8,228.4,324.8z
		 M490.3,418.6c0,18.3-15.5,33.1-34.6,33.1S421,436.9,421,418.6V279.3c0-25.8,14.4-48.6,35.8-61.3c20,12.3,33.5,33.8,33.5,58.1
		V418.6z"/>
</g>
</svg>
