<?xml version="1.0" encoding="utf-8"?>
<!-- Generator: Adobe Illustrator 24.3.0, SVG Export Plug-In . SVG Version: 6.00 Build 0)  -->
<svg version="1.1" id="Layer_1" xmlns="http://www.w3.org/2000/svg" xmlns:xlink="http://www.w3.org/1999/xlink" x="0px" y="0px"
	 viewBox="0 0 850.4 850.4" style="enable-background:new 0 0 850.4 850.4;" xml:space="preserve">
<style type="text/css">
	.st0{fill:#1D1D1B;}
</style>
<path class="st0" d="M759.5,525.3l0.5-249.7c0-58.1-48.8-105.6-109.1-105.6c-14,0-27.2,2.6-39.4,7.2c-11.9-4.6-25-7.2-38.7-7.2
	c-37.8,0-70.9,19.2-89.8,48.1c-19.6-29-53.1-48.1-91.4-48.1c-14,0-27.2,2.6-39.4,7.2c-11.9-4.6-25-7.2-38.7-7.2
	c-34.6,0-65.5,16.3-84.8,41.4c-15.5-24.8-43.7-41.4-75.6-41.4c-48.8,0-88.4,38.3-88.4,85.5V493c0,31.3,26.6,57,58.9,57
	s58.9-25.7,58.9-57V345.5c0-31.3-26.6-57-58.9-57c-9,0-17.6,2-25.2,5.4v-38.7c0-29.2,24.5-52.9,54.7-52.9s54.7,23.7,54.7,52.9v291.7
	h33.8V272.5c0-38.3,31.9-69.4,71.3-69.7c-18.7,18.9-30.1,44.6-30.1,72.9L283,488c2,34.8,32,62.5,68.2,62.5
	c36.4,0,66.1-27.6,68.2-62.5l0.2-215.7c0-27-10.8-51.4-28.4-69.7c0.2,0,0.5,0,0.7,0c41.4,0,75.4,32.7,75.4,72.9L466.8,547h33.8
	l0.5-274.5c0-38.3,32-69.4,71.3-69.7c-18.7,18.9-30.1,44.6-30.1,72.9V488h0.2c2,34.8,32,62.5,68.2,62.5c36.5,0,66.2-27.6,68.2-62.5
	h0.2V272.3c0-27-10.8-51.4-28.4-69.7c0.2,0,0.5,0,0.7,0c41.4,0,75.4,32.7,75.4,72.9l-0.9,247.3c-18.9,5.7-32.4,22.6-32.4,42.7v51.2
	c0,24.6,20.7,44.6,46.1,44.6s46.1-20,46.1-44.6v-51.2C785.6,547.7,774.8,532.4,759.5,525.3z M123.9,321.3
	c13.9,0,25.2,10.9,25.2,24.4V493c0,13.5-11.2,24.4-25.2,24.4S98.7,506.5,98.7,493V345.7C98.7,332.4,110,321.3,123.9,321.3z
	 M385.8,484.1c0,18.5-15.5,33.5-34.6,33.5s-34.6-15-34.6-33.5V275.6c0-26.1,14.4-49.2,35.8-62c20,12.4,33.5,34.2,33.5,58.8V484.1z
	 M645,484.1c0,18.5-15.5,33.5-34.6,33.5s-34.7-15-34.7-33.5V275.6c0-26.1,14.4-49.2,35.8-62c20,12.4,33.5,34.2,33.5,58.8V484.1z
	 M751.9,616.5c0,6.5-5.6,12-12.4,12l0,0c-6.8,0-12.4-5.4-12.4-12v-51.2c0-6.5,5.6-12,12.4-12s12.4,5.4,12.4,12V616.5z"/>
</svg>
