<?xml version="1.0" encoding="utf-8"?>
<!-- Generator: Adobe Illustrator 24.3.0, SVG Export Plug-In . SVG Version: 6.00 Build 0)  -->
<svg version="1.1" id="Layer_1" xmlns="http://www.w3.org/2000/svg" xmlns:xlink="http://www.w3.org/1999/xlink" x="0px" y="0px"
	 viewBox="0 0 850.4 850.4" style="enable-background:new 0 0 850.4 850.4;" xml:space="preserve">
<style type="text/css">
	.st0{fill:#1D1D1B;}
</style>
<path class="st0" d="M528.5,178.5v126.2c0,13.8-11.2,24.9-25.2,24.9s-25.2-11.1-25.2-24.9v-84.2c0-32.1-26.5-58.3-58.9-58.3
	s-58.9,26.3-58.9,58.3V290h33.8v-69.5c0-13.8,11.2-24.9,25.2-24.9s25.2,11.1,25.2,24.9V305c0,32.1,26.6,58.3,59,58.3
	c9,0,17.5-2,25.2-5.6v156.1H406.1V377.1l0,0c0-32.1-26.5-58.3-58.9-58.3s-58.9,26.3-58.9,58.3V547h33.8V377.1
	c0-13.8,11.2-24.9,25.2-24.9s25.2,11.1,25.2,24.9V547h189.9V178.5H528.5z"/>
</svg>
