<?xml version="1.0" encoding="utf-8"?>
<!-- Generator: Adobe Illustrator 24.3.0, SVG Export Plug-In . SVG Version: 6.00 Build 0)  -->
<svg version="1.1" id="Layer_1" xmlns="http://www.w3.org/2000/svg" xmlns:xlink="http://www.w3.org/1999/xlink" x="0px" y="0px"
	 viewBox="0 0 850.4 850.4" style="enable-background:new 0 0 850.4 850.4;" xml:space="preserve">
<style type="text/css">
	.st0{fill:#1D1D1B;}
</style>
<g>
	<path class="st0" d="M528.2,178.3v293.6H406.3v-66.6v-13.9c0-32.4-26.6-58.9-58.9-58.9s-59,26.5-59,58.9v10.4v3.6v99.9h33.8v-99.9
		v-3.6v-10.4c0-13.9,11.2-25.2,25.2-25.2c13.9,0,25.2,11.2,25.2,25.2v13.9v99.9h16.9v0.5h170.1v-0.5h2.5V178.3H528.2z"/>
	<path class="st0" d="M484.6,517.8c-9.9,0-19.4,2-28.1,5.4c-8.8-3.4-18.2-5.4-28.1-5.4c-42.5,0-77,34.4-77,76.9v87.1h33.8v-87.1
		c0-21.1,15.3-38.7,35.3-42.5c-8.1,12.1-12.8,26.8-12.8,42.5v25.6v2.9v8.3c0,28.1,21.8,50.8,48.8,50.8s48.8-22.7,48.8-50.8v-16.9
		v-20v-3.1l0,0c-0.7-14.4-5.2-27.9-12.8-39.4c20,3.6,35.3,21.4,35.3,42.5v89.1h33.8v-89.1C561.5,552.5,526.9,517.8,484.6,517.8z
		 M471.3,631.7c0,9.5-6.8,17.1-15.1,17.1c-8.3,0-15.1-7.6-15.1-17.1v-8.3v-2.9v-25.6c0-13,5.8-24.8,15.1-32.6
		c9.2,7.9,15.1,19.6,15.1,32.6v20V631.7z"/>
</g>
</svg>
