<?xml version="1.0" encoding="utf-8"?>
<!-- Generator: Adobe Illustrator 24.3.0, SVG Export Plug-In . SVG Version: 6.00 Build 0)  -->
<svg version="1.1" id="Layer_1" xmlns="http://www.w3.org/2000/svg" xmlns:xlink="http://www.w3.org/1999/xlink" x="0px" y="0px"
	 viewBox="0 0 850.4 850.4" style="enable-background:new 0 0 850.4 850.4;" xml:space="preserve">
<style type="text/css">
	.st0{fill:#1D1D1B;}
</style>
<g>
	<path class="st0" d="M581,238c-1.1-38.1-33.3-68.7-72.9-68.7c-38.9,0-70.6,29.6-72.9,66.8H435v279.4h-47.7V381
		c0-31.5-26.6-57.4-59-57.4s-58.9,25.8-58.9,57.4v167.3h33.8V381c0-13.6,11.2-24.5,25.2-24.5c14,0,25.2,10.9,25.2,24.5v167.3H581
		V238L581,238z M468.7,515.4V240.2c0-20.8,17.6-37.9,39.2-37.9c21.6,0,39.1,16.9,39.1,37.9v275.2H468.7z"/>
</g>
</svg>
