<?xml version="1.0" encoding="utf-8"?>
<!-- Generator: Adobe Illustrator 24.3.0, SVG Export Plug-In . SVG Version: 6.00 Build 0)  -->
<svg version="1.1" id="Layer_1" xmlns="http://www.w3.org/2000/svg" xmlns:xlink="http://www.w3.org/1999/xlink" x="0px" y="0px"
	 viewBox="0 0 850.4 850.4" style="enable-background:new 0 0 850.4 850.4;" xml:space="preserve">
<style type="text/css">
	.st0{fill:#1D1D1B;}
</style>
<g>
	<path class="st0" d="M583.4,179.1v335.1h-61.2l-0.2-281.8c0-37.5-34-67.3-72.9-67.3c-25.2,0-47.5,12.6-60.5,31.4
		c-16.2-18.5-40.3-30.3-67.1-30.3c-47.9,0-86.8,37.5-88.2,84.1l0,0v244c0,31.8,26.5,57.9,58.9,57.9s59-26.1,59-57.9v-165
		c0-31.8-26.6-57.9-59-57.9c-9,0-17.5,2-25.2,5.5v-0.4v-23.4c0-29.6,24.5-53.7,54.7-53.7c29.7,0,54,23.6,54.7,52.8v295.5l0,0v1.1
		h33.8V236.2c0-21,17.6-38.2,39.1-38.2s39.1,17,39.1,38.2v310.9h128.7v-368H583.4z M292.2,304.2c13.9,0,25.2,11,25.2,24.7v165
		c0,13.7-11.2,24.7-25.2,24.7s-25.2-11-25.2-24.7V328.7C267,315.2,278.3,304.2,292.2,304.2z"/>
</g>
</svg>
