<?xml version="1.0" encoding="utf-8"?>
<!-- Generator: Adobe Illustrator 24.3.0, SVG Export Plug-In . SVG Version: 6.00 Build 0)  -->
<svg version="1.1" id="Layer_1" xmlns="http://www.w3.org/2000/svg" xmlns:xlink="http://www.w3.org/1999/xlink" x="0px" y="0px"
	 viewBox="0 0 850.4 850.4" style="enable-background:new 0 0 850.4 850.4;" xml:space="preserve">
<style type="text/css">
	.st0{fill:#1D1D1B;}
</style>
<g>
	<path class="st0" d="M567.7,520.6c-12.4,0-23.6,4.5-32.4,11.9c-8.8-7.4-20-11.9-32.4-11.9c-27.2,0-49.3,21.6-49.3,48.2v114.3h33.8
		V568.8c0-7.9,7-14.4,15.5-14.4c8.5,0,15.5,6.5,15.5,14.4v114.3h33.8V568.8c0-7.9,7-14.4,15.5-14.4c8.5,0,15.5,6.5,15.5,14.4v114.5
		H617V568.8C617,542.2,595,520.6,567.7,520.6z"/>
	<path class="st0" d="M488.3,245.5v268.2h128.5V179.2H583v301h-61V241.6l0,0c-2-38.2-34-68.6-72.9-68.6c-25.2,0-47.5,12.8-60.5,31.9
		c-16.2-18.9-40.3-30.8-67.1-30.8c-47.9,0-86.8,38.3-88.2,85.7l0,0v198.2c0,32.4,26.6,58.9,58.9,58.9s58.9-26.6,58.9-58.9V340.2
		c0-32.4-26.5-59-58.9-59c-9,0-17.6,2-25.2,5.6v-0.4v-24.1c0-30.1,24.5-54.7,54.7-54.7c29.9,0,54,24.1,54.7,53.8v251.3l0,0v0.9h33.8
		V245.5c0-21.4,17.5-38.9,39.1-38.9C471,206.5,488.3,224.1,488.3,245.5z M292.1,314.5c13.9,0,25.2,11.2,25.2,25.2v117.9
		c0,14-11.2,25.2-25.2,25.2c-14,0-25.2-11.2-25.2-25.2V339.7C266.9,326,278.2,314.5,292.1,314.5z"/>
</g>
</svg>
