<?xml version="1.0" encoding="utf-8"?>
<!-- Generator: Adobe Illustrator 24.3.0, SVG Export Plug-In . SVG Version: 6.00 Build 0)  -->
<svg version="1.1" id="Layer_1" xmlns="http://www.w3.org/2000/svg" xmlns:xlink="http://www.w3.org/1999/xlink" x="0px" y="0px"
	 viewBox="0 0 850.4 850.4" style="enable-background:new 0 0 850.4 850.4;" xml:space="preserve">
<style type="text/css">
	.st0{fill:#1D1D1B;}
</style>
<g>
	<path class="st0" d="M617.1,177.9h-33.8v337h-61.2l-0.2-276c-2-36.8-34-66-72.9-66c-25.2,0-47.5,12.3-60.5,30.7
		c-16.2-18.2-40.3-29.6-67.1-29.6c-47.9,0-86.8,36.8-88.2,82.4l0,0v239c0,31.1,26.5,56.7,58.9,56.7s59-25.5,59-56.7V333.9
		c0-31.1-26.6-56.7-59-56.7c-9,0-17.5,1.9-25.2,5.4v-0.4v-23.1c0-29,24.5-52.6,54.7-52.6c29.7,0,54,23.1,54.7,51.7v289.2l0,0v1.1
		h33.8V242.9c0-20.5,17.6-37.4,39.1-37.4s39.1,16.7,39.1,37.4v304.5h21.4c0,0-0.9,82.2-75.8,82.2h-5.4V662h188.6L617.1,177.9
		L617.1,177.9z M292.2,309.3c13.9,0,25.2,10.8,25.2,24.2V495c0,13.4-11.2,24.2-25.2,24.2S267,508.5,267,495V333.3
		C267,320.3,278.3,309.3,292.2,309.3z M543.5,556.7v-9.3h39.8v82.2h-70.2C532.1,610.8,543.5,585,543.5,556.7z"/>
</g>
</svg>
