<?xml version="1.0" encoding="utf-8"?>
<!-- Generator: Adobe Illustrator 24.3.0, SVG Export Plug-In . SVG Version: 6.00 Build 0)  -->
<svg version="1.1" id="Layer_1" xmlns="http://www.w3.org/2000/svg" xmlns:xlink="http://www.w3.org/1999/xlink" x="0px" y="0px"
	 viewBox="0 0 850.4 850.4" style="enable-background:new 0 0 850.4 850.4;" xml:space="preserve">
<style type="text/css">
	.st0{fill:#1D1D1B;}
</style>
<g>
	<path class="st0" d="M617.5,175.3h-33.8v0.2H583v304.6h-61.2l-0.2-238.5c-2-38.2-34-68.6-72.9-68.6c-25.2,0-47.5,12.8-60.5,31.9
		c-16.2-18.9-40.3-30.8-67.1-30.8c-47.9,0-86.8,38.3-88.2,85.7l0,0v198c0,32.4,26.6,59,58.9,59s59-26.6,59-59V340
		c0-32.4-26.6-59-59-59c-9,0-17.5,2-25.2,5.6v-0.4v-23.6c0-30.2,24.5-54.7,54.7-54.7c29.9,0,54,24.1,54.7,53.8V513l0,0v0.9h33.8
		V245.7c0-21.4,17.6-38.9,39.1-38.9s39.1,17.3,39.1,38.9v268.2h21.8c-2.7,39.4-35.5,70.7-75.6,70.7h-5.4v33.8h92.9
		c-1.6,4.7-2.7,9.9-2.7,15.3v51.8c0,25.4,20.7,46.1,46.1,46.1h5.8c25.4,0,46.1-20.7,46.1-46.1v-51.8c0-7.4-1.8-14.4-5-20.7h5V175.3
		H617.5z M291.7,314.8c14,0,25.2,11.2,25.2,25.2v117.9c0,14-11.2,25.2-25.2,25.2c-13.9,0-25.2-11.2-25.2-25.2V340
		C266.5,326,277.9,314.8,291.7,314.8z M543.7,513.9h39.8v70.7h-70.2C531.1,566.1,542.5,541.3,543.7,513.9z M583.7,685.3
		c0,6.8-5.6,12.4-12.4,12.4h-5.9c-6.8,0-12.4-5.6-12.4-12.4v-51.8c0-6.8,5.6-12.4,12.4-12.4h5.9c6.8,0,12.4,5.6,12.4,12.4V685.3z"/>
</g>
</svg>
