<?xml version="1.0" encoding="utf-8"?>
<!-- Generator: Adobe Illustrator 24.3.0, SVG Export Plug-In . SVG Version: 6.00 Build 0)  -->
<svg version="1.1" id="Layer_1" xmlns="http://www.w3.org/2000/svg" xmlns:xlink="http://www.w3.org/1999/xlink" x="0px" y="0px"
	 viewBox="0 0 850.4 850.4" style="enable-background:new 0 0 850.4 850.4;" xml:space="preserve">
<style type="text/css">
	.st0{fill:#1D1D1B;}
</style>
<g>
	<path class="st0" d="M619.9,182.6v305.6h-61.2V248.7h-0.2c-2-38.2-34-68.6-72.9-68.6c-25.2,0-47.5,12.8-60.5,31.9
		c-16.2-18.9-40.3-30.8-67-30.8c-47.9,0-86.9,38.2-88.2,85.7l0,0v188.1c0,32.4,26.6,58.9,59,58.9s58.9-26.5,58.9-58.9V347.5
		c0-32.4-26.6-59-58.9-59c-9,0-17.6,2-25.2,5.6v-0.4v-24.1c0-30.1,24.5-54.7,54.7-54.7c29.9,0,54,24.1,54.7,53.8V521l0,0v0.9h33.8
		V252.8c0-21.4,17.6-38.9,39.1-38.9s39.1,17.3,39.1,38.9v269.1h94.5c-2.2,18.4-13.5,34.2-29.2,42.3c-2.5,0.9-11.9,6.1-24.8,6.1
		H284.9c-30.1,0-54.7-24.5-54.7-54.7V175.8h-33.8v340c0,44.3,33.1,81.2,75.8,87.5v0.9h286.4c-0.2,1.4-0.2,9.2-0.2,9.2
		c0,25.4,20.7,46.1,46.1,46.1c4.3,0,8.3-0.7,12.4-1.8v9.5c0,7.9-5.6,14.4-12.4,14.4s-12.4-6.5-12.4-14.4h-33.8
		c0,26.5,20.7,48.2,46.1,48.2c25.4,0,46.1-21.6,46.1-48.2v-61.6c-0.7-13.5-7.4-25.4-17.3-33.3c11.5-13.7,18.9-31.1,20.2-50.2h0.2
		V182.6H619.9z M328.8,321.9c13.9,0,25.2,11.2,25.2,25.2v107.6c0,13.9-11.2,25.2-25.2,25.2c-14,0-25.2-11.2-25.2-25.2V346.8
		C303.6,333.1,315.1,321.9,328.8,321.9z M604.6,625.6c-6.8,0-12.4-5.6-12.4-12.4v-5.2c0-4,2-7.9,5.2-10.1c1.6-0.7,3.2-1.4,4.7-2
		c0.7-0.2,1.6-0.2,2.2-0.2c6.8,0,12.4,5.6,12.4,12.4v5.2C617,620.2,611.4,625.6,604.6,625.6z"/>
</g>
</svg>
