<?xml version="1.0" encoding="utf-8"?>
<!-- Generator: Adobe Illustrator 24.3.0, SVG Export Plug-In . SVG Version: 6.00 Build 0)  -->
<svg version="1.1" id="Layer_1" xmlns="http://www.w3.org/2000/svg" xmlns:xlink="http://www.w3.org/1999/xlink" x="0px" y="0px"
	 viewBox="0 0 850.4 850.4" style="enable-background:new 0 0 850.4 850.4;" xml:space="preserve">
<style type="text/css">
	.st0{fill:#1D1D1B;}
</style>
<g>
	<path class="st0" d="M617.1,545.1V178.2h-33.8v334.9h-61.2l-0.2-272.2c0-36.5-34-65.1-72.9-65.1c-25.2,0-47.5,12.2-60.5,30.3
		c-16.2-17.9-40.3-29.2-67.1-29.2c-47.9,0-86.8,36.3-88.2,81.3l0,0v235.7c0,30.7,26.5,55.9,58.9,55.9s59-25.2,59-55.9V334.5
		c0-30.7-26.6-55.9-59-55.9c-9,0-17.5,1.9-25.2,5.3v-0.4V261c0-28.6,24.5-51.8,54.7-51.8c29.9,0,54,22.8,54.7,51v285.2l0,0v1.1h33.8
		V244.5c0-20.3,17.6-36.9,39.1-36.9c21.6,0,39.1,16.4,39.1,36.9v300.3h36.9c-1.6,4.5-2.7,9.4-2.7,14.3v2.1
		c0,24.1,20.7,43.7,46.1,43.7c4.3,0,8.3-0.6,12.4-1.7v6.4c0,5.8-5.6,10.5-12.4,10.5s-12.4-4.7-12.4-10.5h-33.8
		c0,23.5,20.7,42.4,46.1,42.4c25.4,0,46.1-19,46.1-42.4v-52.9l0,0c-0.2-4.1-1.1-7.9-2.5-11.7H617.1z M292.4,310.2
		c14,0,25.2,10.7,25.2,23.9v159.3c0,13.2-11.2,23.9-25.2,23.9c-13.9,0-25.2-10.7-25.2-23.9V333.9
		C267.2,320.9,278.5,310.2,292.4,310.2z M569,573.2c-6.8,0-12.4-5.3-12.4-11.7v-2.1c0-6.4,5.6-11.7,12.4-11.7s12.4,5.3,12.4,11.7
		v2.1C581.1,567.9,575.7,573.2,569,573.2z"/>
</g>
</svg>
