<?xml version="1.0" encoding="utf-8"?>
<!-- Generator: Adobe Illustrator 24.3.0, SVG Export Plug-In . SVG Version: 6.00 Build 0)  -->
<svg version="1.1" id="Layer_1" xmlns="http://www.w3.org/2000/svg" xmlns:xlink="http://www.w3.org/1999/xlink" x="0px" y="0px"
	 viewBox="0 0 850.4 850.4" style="enable-background:new 0 0 850.4 850.4;" xml:space="preserve">
<style type="text/css">
	.st0{fill:#1D1D1B;}
</style>
<path class="st0" d="M482.5,514.2c5.7-9.2,9.2-19.8,9.2-31.2V189.7c0-35.4-32.6-64.2-72.6-64.2s-72.6,28.8-72.6,64.2V483
	c0,35.4,32.6,64.2,72.6,64.2h84.7v-33H482.5L482.5,514.2z M379.6,483V189.7c0-17.2,17.8-31.2,39.6-31.2c21.8,0,39.6,14.1,39.6,31.2
	V483c0,17.2-17.8,31.2-39.6,31.2S379.6,500.4,379.6,483z"/>
</svg>
