<?xml version="1.0" encoding="utf-8"?>
<!-- Generator: Adobe Illustrator 24.3.0, SVG Export Plug-In . SVG Version: 6.00 Build 0)  -->
<svg version="1.1" id="Layer_1" xmlns="http://www.w3.org/2000/svg" xmlns:xlink="http://www.w3.org/1999/xlink" x="0px" y="0px"
	 viewBox="0 0 850.4 850.4" style="enable-background:new 0 0 850.4 850.4;" xml:space="preserve">
<style type="text/css">
	.st0{fill:#1D1D1B;}
</style>
<g>
	<path class="st0" d="M437.3,168.2V73.3h-33.8V170c-40.1,9.2-70.2,43.4-72,84.7l0,0v291.5h33.8V258.3c0-24.7,16-45.8,38.2-54.3
		v290.2c0,32.3,25.9,58.5,57.6,58.5s57.6-26.2,57.6-58.5V258.3C519,212.3,483.2,174.1,437.3,168.2z M485.3,283.2v211
		c0,14.2-10.8,25.7-23.9,25.7s-23.9-11.6-23.9-25.7v-6.5V480V201.4c27.2,5.5,47.9,29,47.9,56.9v20.5v4.4H485.3z"/>
</g>
</svg>
