<?xml version="1.0" encoding="utf-8"?>
<!-- Generator: Adobe Illustrator 24.3.0, SVG Export Plug-In . SVG Version: 6.00 Build 0)  -->
<svg version="1.1" id="Layer_1" xmlns="http://www.w3.org/2000/svg" xmlns:xlink="http://www.w3.org/1999/xlink" x="0px" y="0px"
	 viewBox="0 0 850.4 850.4" style="enable-background:new 0 0 850.4 850.4;" xml:space="preserve">
<style type="text/css">
	.st0{fill:#1D1D1B;}
</style>
<path class="st0" d="M553.7,178.1V487c0,16.9-14.2,30.6-31.7,30.6c-17.6,0-31.7-13.7-31.7-30.6V235.2c0.5-16.7-5.6-63.1-64.8-63.1
	c-19.1,0-36.5,8-48.4,20.6c-0.5-0.4,0.4,0.7,0,0c-12.1-13.2-30.6-20.6-48.4-20.6c-36.2,0-65.5,28.4-65.5,63.1V546H297V235.2
	c0-16.9,14.2-30.6,31.7-30.6c25.9,0,31.3,22.1,31,30.2v311.5h33.8V235.2c0-16.9,14.2-30.6,31.7-30.6c26.8,0,31.3,22.1,31,30.2v252.5
	c0,34.9,29.5,63.1,65.5,63.1s65.5-28.4,65.5-63.1V178.1H553.7z"/>
</svg>
