<?xml version="1.0" encoding="utf-8"?>
<!-- Generator: Adobe Illustrator 24.3.0, SVG Export Plug-In . SVG Version: 6.00 Build 0)  -->
<svg version="1.1" id="Layer_1" xmlns="http://www.w3.org/2000/svg" xmlns:xlink="http://www.w3.org/1999/xlink" x="0px" y="0px"
	 viewBox="0 0 850.4 850.4" style="enable-background:new 0 0 850.4 850.4;" xml:space="preserve">
<style type="text/css">
	.st0{fill:#1D1D1B;}
</style>
<g>
	<path class="st0" d="M581.8,636.8c7.9-7.8,12.6-18.1,13.3-30.8l0,0c0-0.2,0-0.4,0-0.6c0-1.1,0.2-2.2,0.2-3.2h-0.2
		c-1.6-25-19.1-42.2-45.5-44.4v-0.2H535v-11.8l0,0l0,0c0-28.9-24.5-52.3-54.7-52.3c-29.2,0-53.3,22.2-54.7,50l0,0v14.2h-14.2
		c-27,0-48.8,20.5-48.8,48.7l-0.2,58.1h0.2c2.2,23.7,23,42.2,48.4,42.2c13.1,0,24.8-5,33.5-12.9c9.7,8,22.1,12.9,35.8,12.9
		c30.1,0,54.7-23.7,54.7-53v-1.5v-0.9h5.2c15.8,0,21.4,11.8,21.4,22.8v29.1h33.8v-29.1C595.3,659.5,590.3,646.5,581.8,636.8z
		 M480.3,526.2c11.5,0,20.9,9,20.9,20V558h-41.9v-11.8C459.4,535.2,468.8,526.2,480.3,526.2z M411.2,674.5
		c-8.1,0-14.9-6.2-14.9-14.2v-49.7c0-3.4,0.7-20.7,15.1-20.7h1.1h13v73C424.3,669.8,418.4,674.5,411.2,674.5z M501.2,653.9
		c0,11.4-9.4,20.7-20.9,20.7c-10.4,0-20.7-7.3-20.7-17.4l-0.2-66.8h41.9V653.9z M535,619v-28.9h9.2c11.5,0,16.9,5,17.1,15.3
		c-0.7,6.9-4,13.4-21.1,13.4L535,619L535,619z"/>
	<path class="st0" d="M385.6,547.1V237.6c0-16.8,14.2-30.4,31.7-30.4c8.6,0,16.6,3.2,22.5,9c5.6,5.6,8.8,12.9,8.6,20.9v189.7
		c0,34.7,29.5,62.7,65.5,62.7s65.5-28.2,65.5-62.7V178.5h-33.8v248.2c0,16.8-14.2,30.4-31.7,30.4s-31.7-13.6-31.7-30.4V237.6
		c0.5-16.6-6.1-32.1-18-43.9c-12.4-12.1-29-18.7-46.8-18.7c-19.1,0-36.5,8-48.4,20.5c-0.5-0.4-1.1-1.1-1.6-1.5
		c-12.4-12.1-29-18.7-46.8-18.7c-36.2,0-65.5,28.2-65.5,62.7v308.6h33.8V237.6c0-16.8,14.2-30.4,31.7-30.4c8.5,0,16.6,3.2,22.5,9
		c5.6,5.6,8.8,12.9,8.5,20.9v309.9L385.6,547.1L385.6,547.1z"/>
</g>
</svg>
