<?xml version="1.0" encoding="utf-8"?>
<!-- Generator: Adobe Illustrator 24.3.0, SVG Export Plug-In . SVG Version: 6.00 Build 0)  -->
<svg version="1.1" id="Layer_1" xmlns="http://www.w3.org/2000/svg" xmlns:xlink="http://www.w3.org/1999/xlink" x="0px" y="0px"
	 viewBox="0 0 850.4 850.4" style="enable-background:new 0 0 850.4 850.4;" xml:space="preserve">
<style type="text/css">
	.st0{fill:#1D1D1B;}
</style>
<g>
	<path class="st0" d="M553.6,524.8v112.7c0,8.8-6.1,16-13.5,16s-13.5-7.2-13.5-16v-44.3c0-39.2-29.9-70.9-66.8-70.9
		s-66.8,31.7-66.8,70.9l0.7,50.2c0,24.3,19.6,43.9,43.9,43.9c24.3,0,43.9-19.6,43.9-43.9v-16.6c0-24.3-19.6-43.9-43.9-43.9
		c-3.4,0-6.5,0.4-9.7,1.1c3.6-16.2,16.6-28.1,31.9-28.1c18.2,0,33.1,16.6,33.1,37.1v44.5c0,27.5,21.1,49.7,47.2,49.7
		c26.1,0,47.2-22.3,47.2-49.7V524.8H553.6z M437.5,616.6c5.6,0,10.1,4.5,10.1,10.1v16.7c0,5.6-4.5,10.1-10.1,10.1
		s-10.1-4.5-10.1-10.1v-16.6C427.3,621.4,431.8,616.6,437.5,616.6z"/>
	<path class="st0" d="M425.1,208.9c8.3,0,16.2,3.4,22.3,9.4c6.1,6.1,9.2,14.4,9,22.9v204.3c0,36.7,29.5,66.6,65.5,66.6
		s65.5-29.9,65.5-66.6V179.1h-33.8v266.3c0,18.2-14.2,32.9-31.7,32.9c-17.6,0-31.7-14.9-31.7-32.9V241.8
		c0.4-17.8-6.1-34.4-18.4-47.2c-12.4-12.6-28.8-19.6-46.4-19.6c-19.1,0-36.4,8.3-48.4,21.6c-0.7-0.7-1.4-1.4-2-2
		c-12.4-12.6-28.8-19.6-46.4-19.6c-36.2,0-65.5,29.9-65.5,66.6v265.3h33.8V241.8c0-18.2,14.2-32.8,31.7-32.8
		c8.3,0,16.2,3.4,22.3,9.4c6.1,6.1,9.2,14.4,9,22.9v265.9h33.8V241.8C393.4,223.6,407.5,208.9,425.1,208.9z"/>
</g>
</svg>
