<?xml version="1.0" encoding="utf-8"?>
<!-- Generator: Adobe Illustrator 24.3.0, SVG Export Plug-In . SVG Version: 6.00 Build 0)  -->
<svg version="1.1" id="Layer_1" xmlns="http://www.w3.org/2000/svg" xmlns:xlink="http://www.w3.org/1999/xlink" x="0px" y="0px"
	 viewBox="0 0 850.4 850.4" style="enable-background:new 0 0 850.4 850.4;" xml:space="preserve">
<style type="text/css">
	.st0{fill:#1D1D1B;}
</style>
<g>
	<path class="st0" d="M546.7,528.4c-12.4,0-23.6,4.5-32.4,11.7c-8.8-7.2-20-11.7-32.4-11.7c-27.2,0-49.3,21.1-49.3,47.2v111.4h33.8
		V575.7c0-7.4,7-13.5,15.5-13.5c8.5,0,15.5,6.1,15.5,13.5v111.4h33.8V575.7c0-7.4,7-13.5,15.5-13.5s15.5,6.1,15.5,13.5v111.4H596
		V575.7C595.7,549.8,573.7,528.4,546.7,528.4z"/>
	<path class="st0" d="M562,178.4v275.1c0,19.1-15.5,34.6-34.7,34.6c-19.1,0-34.6-15.5-34.6-34.6V243.4c0.4-18-6.3-34.9-18.9-47.9
		C461,182.2,443.6,175,425,175c-20.2,0-38.5,9-51.1,22.9c-0.7-0.9-1.6-1.8-2.2-2.5c-12.8-13.3-30.1-20.5-48.8-20.5
		c-37.6,0-68.4,30.6-68.4,68.4v273.8h33.8V243.4c0-19.1,15.5-34.6,34.6-34.6c9.4,0,18,3.6,24.5,10.3c6.3,6.3,9.4,14.9,9.2,23.6
		v274.5h33.8V243.4c0-19.1,15.5-34.6,34.6-34.6c9.4,0,18,3.6,24.5,10.3c6.3,6.3,9.5,14.9,9.2,23.6v210.8c0,37.6,30.6,68.4,68.4,68.4
		s68.4-30.6,68.4-68.4V178.4H562L562,178.4z"/>
</g>
</svg>
