<?xml version="1.0" encoding="utf-8"?>
<!-- Generator: Adobe Illustrator 24.3.0, SVG Export Plug-In . SVG Version: 6.00 Build 0)  -->
<svg version="1.1" id="Layer_1" xmlns="http://www.w3.org/2000/svg" xmlns:xlink="http://www.w3.org/1999/xlink" x="0px" y="0px"
	 viewBox="0 0 850.4 850.4" style="enable-background:new 0 0 850.4 850.4;" xml:space="preserve">
<style type="text/css">
	.st0{fill:#1D1D1B;}
</style>
<path class="st0" d="M553.6,485.6c0,16.9-14.2,30.5-31.7,30.5c-17.6,0-31.7-13.6-31.7-30.5V234.7c0.5-16.6-6.1-32.2-18-44.1
	c-12.4-12.1-29-18.8-46.8-18.8c-19.1,0-36.4,8-48.4,20.5c-0.4-0.4-1.1-1.1-1.6-1.5c-12.4-12.1-29-18.8-46.8-18.8
	c-36.2,0-65.5,28.3-65.5,62.9v309.7h33.8v-310c0-16.9,14.2-30.5,31.7-30.5c8.6,0,16.6,3.2,22.5,9.1c5.6,5.6,8.8,13,8.6,21v310.2
	h33.8V234.7c0-16.9,14.2-30.5,31.7-30.5c26.8,0,31.3,22,31.1,30v251.6c0,21.2,11,40,27.7,51.4c-6.1,6.9-6.3,18.2-6.3,18.2V608
	c0,22.5,20.7,40.6,46.1,40.6c25.4,0,46.1-18.2,46.1-40.6v-42.6c0,0,0.9-22.7-7.6-30.5c15.3-11.5,25.2-29.4,25.2-49.5V178.5h-33.8
	L553.6,485.6L553.6,485.6z M536,608c0,3.9-5.2,8.2-12.4,8.2c-7.2,0-12.4-4.3-12.4-8.2v-50.4c0.2-1.7,1.6-8.4,12.4-8.4
	c7.2,0,12.4,4.3,12.4,8.2V608z"/>
</svg>
