<?xml version="1.0" encoding="utf-8"?>
<!-- Generator: Adobe Illustrator 24.3.0, SVG Export Plug-In . SVG Version: 6.00 Build 0)  -->
<svg version="1.1" id="Layer_1" xmlns="http://www.w3.org/2000/svg" xmlns:xlink="http://www.w3.org/1999/xlink" x="0px" y="0px"
	 viewBox="0 0 850.4 850.4" style="enable-background:new 0 0 850.4 850.4;" xml:space="preserve">
<style type="text/css">
	.st0{fill:#1D1D1B;}
</style>
<path class="st0" d="M547.5,397L547.5,397c-0.2-16.4-8.1-32.2-21.8-43.4c-12.1-9.9-28.1-15.5-45.2-16.2l0,0
	c-10.4,0-20.2-3.1-27.2-8.8c-3.4-2.7-9.2-8.8-9.2-17.3c0-0.5,0-77,0-77c0-14.8,15.8-27,34.9-27s34.9,12.2,34.9,27v60.3h33.8v-60.3
	c0-33.5-30.8-60.8-68.6-60.8s-68.6,27.2-68.6,60.8c0,0,0,76.3,0,76.7c0,16.4,7.9,32.4,21.8,43.7c12.4,9.9,28.1,15.5,45.2,16.2l0,0
	c10.4,0,20.2,3.1,27.2,8.8c9.9,8.1,9.2,17.3,9.2,17.3v93.1c0,31.7-31.5,57.6-70,57.6c-39.6,0-71.8-26.5-71.8-59.2V180.3h-33.8v308.5
	c0,51.3,47.2,92.9,105.3,92.9l0,0c3.8,0,7.9-0.2,11.7-0.7v52.6c0,25.4,20.7,46.1,46.1,46.1c25.4,0,46.1-20.7,46.1-46.1v-52.9
	c0-15.5-7.6-29.2-19.4-37.6c12.2-15.1,19.4-33.3,19.4-53.1V397z M513.7,633.9c0,6.8-5.6,12.4-12.4,12.4s-12.4-5.6-12.4-12.4V581
	c0-6.8,5.6-12.4,12.4-12.4s12.4,5.6,12.4,12.4V633.9z"/>
</svg>
