<?xml version="1.0" encoding="utf-8"?>
<!-- Generator: Adobe Illustrator 24.3.0, SVG Export Plug-In . SVG Version: 6.00 Build 0)  -->
<svg version="1.1" id="Layer_1" xmlns="http://www.w3.org/2000/svg" xmlns:xlink="http://www.w3.org/1999/xlink" x="0px" y="0px"
	 viewBox="0 0 850.4 850.4" style="enable-background:new 0 0 850.4 850.4;" xml:space="preserve">
<style type="text/css">
	.st0{fill:#1D1D1B;}
</style>
<g>
	<path class="st0" d="M529.8,397L529.8,397c-0.2-16.4-8.1-32.2-21.8-43.4c-12.1-9.9-28.1-15.5-45.2-16.2l0,0
		c-10.4,0-20.2-3.2-27.2-8.8c-3.4-2.7-9.2-8.8-9.2-17.3c0-0.4,0-0.9,0-1.6l0,0v-75.4c0-14.8,15.8-27,34.9-27s34.9,12.2,34.9,27v60.3
		h33.8v-60.3c0-33.5-30.8-60.8-68.6-60.8s-68.6,27.2-68.6,60.8v75.6l0,0c0,0.5,0,0.7,0,1.1c0,16.4,7.9,32.4,21.8,43.6
		c12.4,9.9,28.1,15.5,45.2,16.2l0,0c10.4,0,20.2,3.1,27.2,8.8c3.4,2.7,9.2,8.8,9.2,17.3l0,0c0,0,0,0,0-0.2v93.2
		c0,31.7-31.3,57.6-70,57.6c-39.6,0-71.8-26.5-71.8-59.2V180.1h-33.8v308.5c0,51.3,47.2,92.9,105.5,92.9c3.8,0,7.6-0.2,11.5-0.7v7.4
		c0,25.4,20.7,46.1,46.1,46.1c4.3,0,8.3-0.7,12.4-1.8v10.3c0,8.5-5.6,15.5-12.4,15.5s-12.4-7.2-12.4-15.5h-33.8
		c0,27.2,20.7,49.3,46.1,49.3c25.4,0,46.1-22,46.1-49.3v-54.7v-7.6l0,0c0,0,1.6-28.4-19.4-37.4c12.1-15.1,19.4-33.3,19.4-53.1
		L529.8,397L529.8,397z M483.7,600.8c-6.8,0-12.4-5.6-12.4-12.4v-7.6c0-6.8,5.6-12.4,12.4-12.4s12.4,5.6,12.4,12.4v7.6
		C496.1,595.2,490.7,600.8,483.7,600.8z"/>
</g>
</svg>
