<?xml version="1.0" encoding="UTF-8" standalone="no"?>
<!-- Generator: Adobe Illustrator 24.3.0, SVG Export Plug-In . SVG Version: 6.00 Build 0)  -->

<svg
   version="1.1"
   id="Layer_1"
   x="0px"
   y="0px"
   viewBox="0 0 850.4 850.4"
   style="enable-background:new 0 0 850.4 850.4;"
   xml:space="preserve"
   sodipodi:docname="t2u2-1.svg"
   inkscape:version="1.2.2 (b0a8486541, 2022-12-01)"
   xmlns:inkscape="http://www.inkscape.org/namespaces/inkscape"
   xmlns:sodipodi="http://sodipodi.sourceforge.net/DTD/sodipodi-0.dtd"
   xmlns="http://www.w3.org/2000/svg"
   xmlns:svg="http://www.w3.org/2000/svg"><defs
   id="defs13" /><sodipodi:namedview
   id="namedview11"
   pagecolor="#ffffff"
   bordercolor="#666666"
   borderopacity="1.0"
   inkscape:showpageshadow="2"
   inkscape:pageopacity="0.0"
   inkscape:pagecheckerboard="0"
   inkscape:deskcolor="#d1d1d1"
   showgrid="false"
   inkscape:zoom="1.2076669"
   inkscape:cx="378.41559"
   inkscape:cy="425.20001"
   inkscape:window-width="3200"
   inkscape:window-height="1755"
   inkscape:window-x="0"
   inkscape:window-y="0"
   inkscape:window-maximized="1"
   inkscape:current-layer="Layer_1" />
<style
   type="text/css"
   id="style2">
	.st0{fill:#1D1D1B;}
</style>
<path
   class="st0"
   d="M425.2,165.4c-36.2,0-65.6,29.4-65.6,65.6v192.4h0v68.9c0,28,17.8,52,42.7,61.4c-5.9,8.2-3.9,23.3-3.9,23.3  c2.5,23.2,22,41.4,45.9,41.4c4.3,0,8.3-0.7,12.4-1.8v7.4c0,6.5-5.6,11.9-12.4,11.9s-12.4-5.4-12.4-11.9h-33.8  c0,25.2,20.7,45.7,46.1,45.7s46.1-20.5,46.1-45.7v-58h0.1c-0.6-12.5-6.1-23.6-14.5-31.4c10-11.9,15.2-26.7,14.9-42.3v-25.9h0V230.9  C490.8,194.8,461.4,165.4,425.2,165.4z M393.4,284.7v-53.7c0-17.5,14.3-31.8,31.8-31.8s31.8,14.3,31.8,31.8v38.2h0v223.3l0,0.5  c0.2,8.1-2.8,15.7-8.5,21.6c-6,6.2-14.2,9.6-23,9.6c-17.7,0-32.2-14.3-32.2-31.8L393.4,284.7L393.4,284.7z M456.6,572.3  c0.1,6.6-5.6,12.2-12.3,12.2c-6.8,0-12.4-5.6-12.4-12.4v-4.3c0-3.1,1.1-6.1,3.1-8.3c1.4-1.5,2.8-2.5,4.2-3.1c1.4-0.3,2.8-0.6,4.1-1  c0.4,0,0.7,0,0.9,0c6.8,0,12.4,5.6,12.4,12.4V572.3z"
   id="path4" />


</svg>
