<?xml version="1.0" encoding="utf-8"?>
<!-- Generator: Adobe Illustrator 24.3.0, SVG Export Plug-In . SVG Version: 6.00 Build 0)  -->
<svg version="1.1" id="Layer_1" xmlns="http://www.w3.org/2000/svg" xmlns:xlink="http://www.w3.org/1999/xlink" x="0px" y="0px"
	 viewBox="0 0 850.4 850.4" style="enable-background:new 0 0 850.4 850.4;" xml:space="preserve">
<style type="text/css">
	.st0{fill:#1D1D1B;}
</style>
<g>
	<path class="st0" d="M296.7,547V236.2c0-16.9,14.2-30.5,31.7-30.5c17.6,0,31.7,13.6,31.7,30.5v251.3c0,45.7,30.8,63,64.8,63
		c19.1,0,36.5-8,48.4-20.6c0.5,0.4-0.5-0.6,0,0c12.1,13.2,30.6,20.6,48.4,20.6c36.2,0,65.5-28.4,65.5-63V177.3h-33.8v310.2
		c0,16.9-14.2,30.5-31.7,30.5c-8.5,0-31-6.3-31-30.1V177.1h-33.8v310.2c0,16.9-14.2,30.5-31.7,30.5c-8.5,0-31-6.1-31-30.1v-252
		c0-34.9-29.5-63-65.5-63s-65.5,28.4-65.5,63v310.8h33.5V547z"/>
</g>
</svg>
