<?xml version="1.0" encoding="utf-8"?>
<!-- Generator: Adobe Illustrator 24.3.0, SVG Export Plug-In . SVG Version: 6.00 Build 0)  -->
<svg version="1.1" id="Layer_1" xmlns="http://www.w3.org/2000/svg" xmlns:xlink="http://www.w3.org/1999/xlink" x="0px" y="0px"
	 viewBox="0 0 850.4 850.4" style="enable-background:new 0 0 850.4 850.4;" xml:space="preserve">
<style type="text/css">
	.st0{fill:#1D1D1B;}
</style>
<g>
	<path class="st0" d="M360.4,237.6v198.7c-0.4,17.3,6.1,33.5,18,45.9c12.4,12.6,29,19.6,46.8,19.6c19.1,0,36.4-8.3,48.4-21.4
		c0.4,0.5,1.1,1.1,1.6,1.6c12.4,12.6,29,19.6,46.8,19.6c36.2,0,65.5-29.5,65.5-65.5V177.3h-33.8v259.2c0,17.6-14.2,31.7-31.7,31.7
		c-8.5,0-16.6-3.4-22.5-9.5c-5.6-5.9-8.8-13.5-8.5-21.8V177.3h-33.8v259.2c0,17.6-14.2,31.7-31.7,31.7c-8.6,0-16.6-3.4-22.5-9.5
		c-5.6-5.9-8.8-13.5-8.6-21.8V237.6c0-36.2-29.5-65.5-65.5-65.5S263,201.4,263,237.6v255.6h33.8V237.6c0-17.6,14.2-31.7,31.7-31.7
		C346,205.9,360.4,220.1,360.4,237.6z"/>
	<path class="st0" d="M540.8,508.5c-25.7,0-46.6,20.9-46.6,46.6v54.7c0,25.6,20.9,46.6,46.6,46.6c4.5,0,8.8-0.7,12.8-1.8v1.8
		c0,21.4-17.3,38.7-38.7,38.7c-21.4,0-38.7-17.3-38.7-38.7L476,511.9h-33.8v169c0,7.9-6.5,14.4-14.4,14.4c-3.8,0-7.4-1.6-10.1-4.3
		c-2.5-2.5-3.8-6.1-3.8-9.5V556.7c0-26.5-21.6-48.1-48.1-48.1c-26.6,0-48.1,21.6-48.1,48.1v164.7h33.8V556.7
		c0-7.9,6.5-14.4,14.4-14.4s14.4,6.5,14.4,14.4v124c-0.2,12.6,4.5,24.5,13.3,33.8c9,9.2,21.1,14.4,34.2,14.4
		c15.5,0,29.2-7.4,38.2-18.9c12.8,11.7,29.9,18.9,48.8,18.9c39.8,0,72.2-32.4,72.5-72.2l0,0V555.1
		C587.4,529.4,566.5,508.5,540.8,508.5z M553.7,609.8c0,7.2-5.9,12.8-12.8,12.8c-7.2,0-12.8-5.9-12.8-12.8v-54.7
		c0-7.2,5.9-12.8,12.8-12.8c7.2,0,12.8,5.8,12.8,12.8V609.8z"/>
</g>
</svg>
