<?xml version="1.0" encoding="utf-8"?>
<!-- Generator: Adobe Illustrator 24.3.0, SVG Export Plug-In . SVG Version: 6.00 Build 0)  -->
<svg version="1.1" id="Layer_1" xmlns="http://www.w3.org/2000/svg" xmlns:xlink="http://www.w3.org/1999/xlink" x="0px" y="0px"
	 viewBox="0 0 850.4 850.4" style="enable-background:new 0 0 850.4 850.4;" xml:space="preserve">
<style type="text/css">
	.st0{fill:#1D1D1B;}
</style>
<path class="st0" d="M538.1,175c-27.2,0-51.1,12.2-64.1,30.7C456.9,187,431.5,175,403.4,175c-12.8,0-25,2.4-36,6.9
	c-11-4.5-23.2-6.9-36-6.9c-50.4,0-91.6,38-93.6,85.6l0,0v286.8h33.8V264.5c0-31.6,27-57.3,60.1-57.3c0,0,0,0,0.2,0
	c-11.9,13.5-19.6,30.7-21.4,49.4l-0.5,240c0,31.8,25.9,57.5,57.6,57.5s57.6-25.8,57.6-57.5v-232c0-21.7-8.1-41.6-21.8-57.3
	c0,0,0,0,0.2,0c33.1,0,60.1,25.8,60.1,57.3v80.1h33.8c0,0,0-106.2,0-106.9c0.2-16.5,18.4-30,40.7-30c22.5,0,40.7,13.5,40.7,30.3
	v38.4c0,29.8-19.4,56.2-49.5,67.2l0,0c-39.1,16.5-64.6,51.9-65.9,91.9l0,0v111h0.2v1.1h149v-1.3l0,0V372.4h-33.8v142.5h-81.7
	c0,0,0-74.9,0-76.4c0-29,18.7-54.9,47.5-66.3l0,0c40.5-16.1,66.6-51.9,68-92.9l0,0v-41.6C612.8,203.1,579.3,175,538.1,175z
	 M391.4,264.5v232c0,14-10.8,25.3-23.9,25.3c-13.1,0-23.9-11.4-23.9-25.3v-232c0-18.7,9.5-35.2,23.9-45.7
	C382,229,391.4,245.8,391.4,264.5z"/>
</svg>
