<?xml version="1.0" encoding="utf-8"?>
<!-- Generator: Adobe Illustrator 24.3.0, SVG Export Plug-In . SVG Version: 6.00 Build 0)  -->
<svg version="1.1" id="Layer_1" xmlns="http://www.w3.org/2000/svg" xmlns:xlink="http://www.w3.org/1999/xlink" x="0px" y="0px"
	 viewBox="0 0 850.4 850.4" style="enable-background:new 0 0 850.4 850.4;" xml:space="preserve">
<style type="text/css">
	.st0{fill:none;stroke:#1D1D1B;stroke-width:33.75;stroke-miterlimit:10;}
	.st1{fill:#1D1D1B;}
</style>
<path class="st0" d="M425.2,680"/>
<path class="st1" d="M667.3,258.4c0-47.2-43.2-85.9-93.6-85.9c-12.8,0-25,2.4-36,6.9c-11-4.5-23.2-6.9-36-6.9
	c-31.7,0-59.9,15.1-76.7,38.3c-16.9-23-45-38.3-76.7-38.3c-12.8,0-25,2.4-36,6.9c-11-4.5-23.2-6.9-36-6.9
	c-50.4,0-93.6,38.3-93.6,85.9l0,0v288h33.7V262.1c0-31.7,27-57.5,60.1-57.5c0,0,0,0,0.2,0c-11.9,13.6-21.4,30.2-21.4,49.5
	l-0.4,237.4c0,31.9,25.9,57.7,57.6,57.7s57.6-25.8,57.6-57.7V262.3c0-21.8-8.1-41.8-21.8-57.5c0,0,0,0,0.2,0
	c31.9,0,59.9,23.5,59.9,54.1c0,1.1,0.2,287.6,0.2,287.6h0.4l0,0h33.3l0,0h0.4l-0.4-288c0-29.7,28.1-53.6,59.8-53.6c0,0,0,0,0.2,0
	c-11.9,13.6-21.4,30.8-21.4,49.5l-1.1,237.4c0,31.9,25.9,57.7,57.6,57.7s57.6-25.8,57.6-57.7V262.5c0-21.8-8.1-41.8-21.8-57.5
	c0,0,0,0,0.2,0c33.1,0,60.1,25.8,60.1,57.5v284.1h0.5l0,0h33.3l0,0h0.5L667.3,258.4z M335.9,262.3v229.2c0,14-10.8,25.4-23.9,25.4
	c-13,0-23.9-11.4-23.9-25.4V262.1c0-18.7,9.5-35.3,23.9-45.9C326.6,226.8,335.9,243.6,335.9,262.3z M561.5,262.3v229.2
	c0,14-10.8,25.4-23.9,25.4c-13,0-23.8-11.4-23.8-25.4V262.1c0-18.7,9.5-35.3,23.8-45.9C552.1,226.8,561.5,243.6,561.5,262.3z"/>
</svg>
