<?xml version="1.0" encoding="utf-8"?>
<!-- Generator: Adobe Illustrator 24.3.0, SVG Export Plug-In . SVG Version: 6.00 Build 0)  -->
<svg version="1.1" id="Layer_1" xmlns="http://www.w3.org/2000/svg" xmlns:xlink="http://www.w3.org/1999/xlink" x="0px" y="0px"
	 viewBox="0 0 850.4 850.4" style="enable-background:new 0 0 850.4 850.4;" xml:space="preserve">
<style type="text/css">
	.st0{fill:#1D1D1B;}
</style>
<path class="st0" d="M702.7,264.6c0-48.8-42.1-88.5-93.8-88.5c-12.8,0-25,2.3-36,6.8c-11-4.5-23.2-6.8-36-6.8
	c-31.7,0-59.9,15.1-77,38c-16.9-22.9-45-38-77-38c-12.8,0-25,2.3-36,6.8c-11-4.5-23.2-6.8-36-6.8c-50.4,0-91.6,37.6-93.6,84.7l0,0
	v283.7h33.8V264.6c0-31.2,27-56.6,60.1-56.6c0,0,0,0,0.2,0c-11.9,13.4-19.6,30.3-21.4,48.8h-0.4V494c0,31.4,25.9,56.9,57.6,56.9
	s57.6-25.5,57.6-56.9V264.6c0-21.4-8.1-41.2-21.8-56.6c0,0,0,0,0.2,0c33.1,0,60.1,25.5,60.1,56.6v279.8l0,0l0,0h33.8l0,0l0,0V264.6
	c0-31.2,27-56.6,60.1-56.6c0,0,0,0,0.2,0c-11.9,13.4-21.4,30.3-21.4,48.8L515.5,494c0,31.4,25.9,56.9,57.6,56.9
	c31.7,0,57.6-25.5,57.6-56.9V264.6c0-21.4-8.1-41.2-21.8-56.6c0,0,0,0,0.2,0c33.1,0,60.1,25.5,60.1,56.6v284.7
	c0,46.9-40.5,85.1-90.2,85.1H264.7c-45.9,0-83.2-35.2-83.2-78.5V178.3h-33.8v377.6c0,58.8,48.8,106.7,110.2,110.1l324,0.2l0,0
	c66.8-1.7,120.8-53.5,120.8-116.9V264.6z M370.9,264.6V494c0,13.8-10.8,25-23.9,25c-13,0-23.9-11.2-23.9-25V264.6
	c0-18.5,9.4-34.8,23.9-45.2C361.6,229.8,370.9,246.2,370.9,264.6z M596.8,264.6V494c0,13.8-10.8,25-23.8,25
	c-13.1,0-23.9-11.2-23.9-25V264.6c0-18.5,9.5-34.8,23.9-45.2C587.3,229.8,596.8,246.2,596.8,264.6z"/>
</svg>
