<?xml version="1.0" encoding="utf-8"?>
<!-- Generator: Adobe Illustrator 24.3.0, SVG Export Plug-In . SVG Version: 6.00 Build 0)  -->
<svg version="1.1" id="Layer_1" xmlns="http://www.w3.org/2000/svg" xmlns:xlink="http://www.w3.org/1999/xlink" x="0px" y="0px"
	 viewBox="0 0 850.4 850.4" style="enable-background:new 0 0 850.4 850.4;" xml:space="preserve">
<style type="text/css">
	.st0{fill:#1D1D1B;}
</style>
<path class="st0" d="M545.6,238.8c-1.1-37.9-33.3-68.5-72.9-68.5c-38.9,0-70.6,29.4-72.9,66.5L399.5,515h-61.2V179.3h-33.8v368.5
	h241.2L545.6,238.8L545.6,238.8z M433.5,515V240.8c0-20.7,17.6-37.5,39.1-37.5c21.6,0,39.1,16.8,39.1,37.7v274H433.5z"/>
</svg>
