<?xml version="1.0" encoding="utf-8"?>
<!-- Generator: Adobe Illustrator 24.3.0, SVG Export Plug-In . SVG Version: 6.00 Build 0)  -->
<svg version="1.1" id="Layer_1" xmlns="http://www.w3.org/2000/svg" xmlns:xlink="http://www.w3.org/1999/xlink" x="0px" y="0px"
	 viewBox="0 0 850.4 850.4" style="enable-background:new 0 0 850.4 850.4;" xml:space="preserve">
<style type="text/css">
	.st0{fill:#1D1D1B;}
</style>
<path class="st0" d="M545.7,239c-1.1-38-33.3-68.6-72.9-68.6c-38.9,0-70.6,29.5-72.9,66.7l-0.2,278.9h-61.2V179.1h-33.8v369.6h147.2
	c-2,7.9-1.8,16.2-1.8,16.2c0,24.7,20.7,44.8,46.1,44.8c4.3,0,8.3-0.7,12.4-1.7v7.2c0,6.3-5.6,11.6-12.4,11.6s-12.4-5.2-12.4-11.6
	h-33.8c0,24.5,20.7,44.4,46.1,44.4c25.4,0,46.1-19.9,46.1-44.4v-50.3c0,0,0.2-9.8-1.6-16.2h5V239L545.7,239z M496.4,576.9
	c-6.8,0-12.4-5.5-12.4-12v-4.2c0-6.6,5.6-12,12.4-12s12.4,5.5,12.4,12v4.2C508.8,571.7,503.4,576.9,496.4,576.9z M512.2,515.9h-78.5
	V241.2c0-20.8,17.6-37.8,39.1-37.8s39.1,16.8,39.1,37.8v274.8H512.2z"/>
</svg>
