<?xml version="1.0" encoding="utf-8"?>
<!-- Generator: Adobe Illustrator 24.3.0, SVG Export Plug-In . SVG Version: 6.00 Build 0)  -->
<svg version="1.1" id="Layer_1" xmlns="http://www.w3.org/2000/svg" xmlns:xlink="http://www.w3.org/1999/xlink" x="0px" y="0px"
	 viewBox="0 0 850.4 850.4" style="enable-background:new 0 0 850.4 850.4;" xml:space="preserve">
<style type="text/css">
	.st0{fill:#1D1D1B;}
</style>
<path class="st0" d="M425.5,173.2c-41.6,0-75.6,28.4-75.6,63v311.2h33.8V236.2c0-16.5,19.1-30.5,41.9-30.5
	c22.7,0,41.2,13.6,41.2,30.5v60.2c0,11.7-4.9,27.1-20.9,27.1c-10.6,0-29,0-29,0v32.9c0,0,24.1-0.2,29-0.2
	c18.5,0,20.9,15.6,20.9,27.3v63c0,11.7-5.2,27.1-20.9,27.1c-9.2,0-29,0.2-29,0.2v32.7c0,0,23.4,0,29,0c15.3,0,20.9,15.6,20.9,27.3
	v131h33.7v-131c0-17.5-6.8-32.9-18-43.5c11.2-10.6,18-25.8,18-43.5v-63c0-17.5-6.8-32.9-18-43.5c11.2-10.6,18-25.8,18-43.5V236
	C500.5,201.6,466.7,173.2,425.5,173.2z"/>
</svg>
