<?xml version="1.0" encoding="utf-8"?>
<!-- Generator: Adobe Illustrator 24.3.0, SVG Export Plug-In . SVG Version: 6.00 Build 0)  -->
<svg version="1.1" id="Layer_1" xmlns="http://www.w3.org/2000/svg" xmlns:xlink="http://www.w3.org/1999/xlink" x="0px" y="0px"
	 viewBox="0 0 850.4 850.4" style="enable-background:new 0 0 850.4 850.4;" xml:space="preserve">
<style type="text/css">
	.st0{fill:#1D1D1B;}
</style>
<g>
	<path class="st0" d="M416.9,243v260.8h0.2h44.6h83.9V178.7H512v292.8h-61.2V239c0,0,2.2-68.6-73.1-68.6
		c-39.6,0-71.8,31.5-72.9,70.7v264.2h33.8V243c0-21.4,17.6-38.9,39.1-38.9C399.3,204.1,416.9,221.4,416.9,243z"/>
	<path class="st0" d="M511.8,525v111.4c0,8.8-6.1,16-13.5,16c-7.4,0-13.5-7.2-13.5-16V592c0-39.2-29.9-70.9-66.8-70.9
		s-66.8,31.7-66.8,70.9l0.7,50.2c0,24.3,19.6,43.9,43.9,43.9c24.3,0,43.9-19.6,43.9-43.9v-16.6c0-24.3-19.6-43.9-43.9-43.9
		c-3.4,0-6.5,0.4-9.7,1.1c3.6-16.2,16.6-28.1,31.9-28.1c18.2,0,33.1,16.6,33.1,37.1v44.3c0,27.5,21.1,49.7,47.2,49.7
		c26.1,0,47.2-22.3,47.2-49.7V525H511.8z M395.9,615.2c5.6,0,10.1,4.5,10.1,10.1V642c0,5.6-4.5,10.1-10.1,10.1s-10.1-4.5-10.1-10.1
		v-16.6C385.8,619.9,390.3,615.2,395.9,615.2z"/>
</g>
</svg>
