<?xml version="1.0" encoding="utf-8"?>
<!-- Generator: Adobe Illustrator 24.3.0, SVG Export Plug-In . SVG Version: 6.00 Build 0)  -->
<svg version="1.1" id="Layer_1" xmlns="http://www.w3.org/2000/svg" xmlns:xlink="http://www.w3.org/1999/xlink" x="0px" y="0px"
	 viewBox="0 0 850.4 850.4" style="enable-background:new 0 0 850.4 850.4;" xml:space="preserve">
<style type="text/css">
	.st0{fill:#1D1D1B;}
</style>
<path class="st0" d="M512,515.4h-61.2l-0.2-278.5c-2-37.1-34-66.5-72.9-66.5c-39.6,0-71.8,30.5-72.9,68.5l0,0v309.1h33.8V241
	c0-20.7,17.6-37.7,39.1-37.7s39.1,16.8,39.1,37.7v307.1h32.4c-0.7,2.6-1.6,7.9-1.6,7.9v53c0,22.7,20.7,41,46.1,41
	c25.4,0,46.1-18.3,46.1-41l-0.2-53.2c0-3.1-0.7-5.2-1.4-7.9h7.2V179h-33.8L512,515.4L512,515.4z M506.4,609.2
	c0,3.9-5.2,8.3-12.4,8.3c-7.2,0-12.4-4.4-12.4-8.3v-50.8c0.2-1.7,1.1-3.5,2.5-5c2-2.2,5.4-3.5,9.9-3.5c7.2,0,12.4,4.4,12.4,8.3
	V609.2z"/>
</svg>
