<?xml version="1.0" encoding="utf-8"?>
<!-- Generator: Adobe Illustrator 24.3.0, SVG Export Plug-In . SVG Version: 6.00 Build 0)  -->
<svg version="1.1" id="Layer_1" xmlns="http://www.w3.org/2000/svg" xmlns:xlink="http://www.w3.org/1999/xlink" x="0px" y="0px"
	 viewBox="0 0 850.4 850.4" style="enable-background:new 0 0 850.4 850.4;" xml:space="preserve">
<style type="text/css">
	.st0{fill:#1D1D1B;}
</style>
<path class="st0" d="M543,178.4h-33v345.4h-59.8V242.9H450c-2-37.4-33.2-67.1-71.3-67.1c-38.7,0-70.2,30.8-71.3,69.1l0,0v311.7l0,0
	v1.1h33V246.8c0-20.9,17.2-38.1,38.3-38.1c21.1,0,38.3,16.9,38.3,38.1v309.7h20.9v9.5c0,40.9-33.2,74.1-74.1,74.1h-5.3v33L543,673
	V178.4z M471.3,566.1v-9.5h38.9v83.6h-68.6C459.9,621.1,471.3,594.9,471.3,566.1z"/>
</svg>
