<?xml version="1.0" encoding="utf-8"?>
<!-- Generator: Adobe Illustrator 24.3.0, SVG Export Plug-In . SVG Version: 6.00 Build 0)  -->
<svg version="1.1" id="Layer_1" xmlns="http://www.w3.org/2000/svg" xmlns:xlink="http://www.w3.org/1999/xlink" x="0px" y="0px"
	 viewBox="0 0 850.4 850.4" style="enable-background:new 0 0 850.4 850.4;" xml:space="preserve">
<style type="text/css">
	.st0{fill:#1D1D1B;}
</style>
<path class="st0" d="M549.4,447c0,41.3-34.7,74.9-77.2,74.9c-4.5,0-9-0.4-13.3-1.1c18.7-19.2,30.1-45.2,30.1-73.8V235.6
	c0-34.3-28.6-62-63.9-62c-18.7,0-35.3,7.6-47,20.1c-11.7-12.2-28.4-20.1-47-20.1c-35.3,0-63.9,27.7-63.9,62V447
	c0,59.4,49.7,107.7,110.9,107.7c16.9,0,32.6-3.7,47-10.3c14.2,6.6,30.1,10.3,47,10.3c6.3,0,12.6-0.7,18.7-1.5l0,0v3.7v42.6
	c0,22.7,20.7,41.1,46.1,41.1c25.4,0,46.1-18.3,46.1-41.1v-53.1h-0.2c-0.9-14.4-9.9-26.6-23.2-33.4c14.6-18.1,23.4-41.1,23.4-66
	V179.9h-33.8L549.4,447L549.4,447z M378.2,521.9c-42.5,0-77.2-33.6-77.2-74.9V235.6c0-16.2,13.5-29.3,30.1-29.3
	c16.6,0,30.1,13.1,30.1,29.3V447c0,28.6,11.5,54.4,30.1,73.8C387.2,521.5,382.7,521.9,378.2,521.9z M455.3,447
	c0,24.2-11.9,45.6-30.1,59.4C407,492.6,395,471.2,395,447V235.6c0-16.2,13.5-29.3,30.1-29.3s30.1,13.1,30.1,29.3V447z M549.4,599.6
	c0,3.9-5.2,8.3-12.4,8.3c-7.2,0-12.4-4.4-12.4-8.3v-51.1c0.2-1.7,1.1-3.5,2.5-5c2-2.2,5.4-3.5,9.9-3.5c7.2,0,12.4,4.4,12.4,8.3
	V599.6z"/>
</svg>
