<?xml version="1.0" encoding="utf-8"?>
<!-- Generator: Adobe Illustrator 24.3.0, SVG Export Plug-In . SVG Version: 6.00 Build 0)  -->
<svg version="1.1" id="Layer_1" xmlns="http://www.w3.org/2000/svg" xmlns:xlink="http://www.w3.org/1999/xlink" x="0px" y="0px"
	 viewBox="0 0 850.4 850.4" style="enable-background:new 0 0 850.4 850.4;" xml:space="preserve">
<style type="text/css">
	.st0{fill:#1D1D1B;}
</style>
<path class="st0" d="M583.1,179.3h-33.8v269.9c0,41.7-34.7,75.7-77.2,75.7c-4.5,0-9-0.4-13.3-1.1c18.7-19.4,30.1-45.7,30.1-74.6
	V235.6c0-34.7-28.6-62.7-63.9-62.7c-18.7,0-35.3,7.7-47,20.3c-11.7-12.4-28.4-20.3-47-20.3c-35.3,0-63.9,28-63.9,62.7V449
	c0,60,49.7,108.8,110.9,108.8c16.9,0,32.6-3.8,47-10.4c14.2,6.6,30.1,10.4,47,10.4c6.3,0,12.6-0.7,18.7-1.5v1.3
	c0,24.9,20.7,45.2,46.1,45.2c4.3,0,8.3-0.7,12.4-1.8v6.6c0,6-5.6,10.8-12.4,10.8s-12.4-4.9-12.4-10.8h-33.8
	c0,24.3,20.7,43.9,46.1,43.9c25.4,0,46.1-19.6,46.1-43.9l-0.2-55.2c-0.9-15.7-10.1-29.4-23.4-36.6c14.8-18.5,23.6-41.7,23.6-66.9
	V179.3z M378.2,524.9c-42.5,0-77.2-34-77.2-75.7V235.6c0-16.3,13.5-29.6,30.1-29.6s30.1,13.2,30.1,29.6v213.9
	c0,28.9,11.5,55,30.1,74.6C387.2,524.5,382.7,524.9,378.2,524.9z M455.3,449.2c0,24.5-11.9,46.1-30.1,60
	c-18.2-13.9-30.1-35.5-30.1-60V235.6c0-16.3,13.5-29.6,30.1-29.6c16.6,0,30.1,13.2,30.1,29.6V449.2z M549.4,557.6
	c0,6.6-5.6,12.1-12.4,12.1s-12.4-5.5-12.4-12.1v-2.2c0-6.6,5.6-12.1,12.4-12.1s12.4,5.5,12.4,12.1V557.6z"/>
</svg>
