<?xml version="1.0" encoding="utf-8"?>
<!-- Generator: Adobe Illustrator 24.3.0, SVG Export Plug-In . SVG Version: 6.00 Build 0)  -->
<svg version="1.1" id="Layer_1" xmlns="http://www.w3.org/2000/svg" xmlns:xlink="http://www.w3.org/1999/xlink" x="0px" y="0px"
	 viewBox="0 0 850.4 850.4" style="enable-background:new 0 0 850.4 850.4;" xml:space="preserve">
<style type="text/css">
	.st0{fill:#1D1D1B;}
</style>
<path class="st0" d="M572.6,283.2v-0.7v-9.7c0-55.4-43.2-100.4-96.3-100.4s-96.3,45-96.3,100.4v167v0.4c0.2,7.6-2.7,14.9-7.9,20.2
	c-5.6,5.6-13.1,8.8-21.1,8.8c-16.4,0-29.7-13.3-29.7-29.7V178.3h-33.8v261.5c0,35.1,28.6,63.4,63.4,63.4c17.3,0,33.3-6.8,45.2-19.1
	c11.7-11.9,18-27.9,17.5-44.5V273.1c0-36.7,28.1-66.6,62.6-66.6s62.5,29.9,62.5,66.6v7.6c-44.8,4.7-80.1,41.2-83.5,86.4h-0.2v75.4
	c0,32.4,26.3,58.7,58.7,58.7c32.4,0,58.7-26.3,58.7-58.7l-0.2-123.8c21.1,9.2,36,30.4,36,55.1v135.7c0,29.9-24.3,54.5-54.2,54.7
	H296.9c-30.1,0-54.7-24.5-54.7-54.7V179.2h-33.8v330.5c0,46.4,35.8,84.4,81.2,88v0.2h260.1c-0.2,1.3-0.2,9.2-0.2,9.2
	c0,25.4,20.7,46.1,46.1,46.1c4.3,0,8.3-0.7,12.4-1.8v9.5c0,7.9-5.6,14.4-12.4,14.4s-12.4-6.5-12.4-14.4h-33.8
	c0,26.5,20.7,48.1,46.1,48.1s46.1-21.6,46.1-48.1v-61.7c0,0,0.2-29.2-19.4-34.6c11.9-15.1,19.4-34.2,19.4-54.9V374.1
	C642.3,330.4,612.6,293.8,572.6,283.2z M539,442.7c0,13.7-11.2,25-25,25c-13.7,0-25-11.2-25-25v-68.6c0-29.7,21.6-54.4,50-59.2
	l0.2,127.8H539z M555,586v-0.5C555,585.8,555,586,555,586z M608.6,607.2c0,6.8-5.6,12.4-12.4,12.4s-12.4-5.6-12.4-12.4V602
	c0-6.8,5.6-12.4,12.4-12.4s12.4,5.6,12.4,12.4V607.2z"/>
</svg>
